ISO-10303-21;
HEADER;
FILE_DESCRIPTION(('CATIA V5 STEP Exchange'),'2;1');

FILE_NAME('D:\\_PROYECTOS\\__librerias\\rodamientos\\bearing_604zz.stp','2021-01-06T15:25:07+00:00',('none'),('none'),'CATIA Version 5 Release 21 GA (IN-10)','CATIA V5 STEP AP203','none');

FILE_SCHEMA(('CONFIG_CONTROL_DESIGN'));

ENDSEC;
/* file written by CATIA V5R21 */
DATA;
#5=PRODUCT('rod_624Z','','',(#2)) ;
#1=APPLICATION_CONTEXT('configuration controlled 3D design of mechanical parts and assemblies') ;
#14=PRODUCT_DEFINITION('',' ',#6,#3) ;
#16=SECURITY_CLASSIFICATION(' ',' ',#15) ;
#15=SECURITY_CLASSIFICATION_LEVEL('unclassified') ;
#47=CARTESIAN_POINT(' ',(0.,0.,0.)) ;
#52=CARTESIAN_POINT('Axis2P3D Location',(0.,2.,0.)) ;
#57=CARTESIAN_POINT('Axis2P3D Location',(0.,5.3290705182E-015,0.)) ;
#61=CARTESIAN_POINT('Vertex',(2.39712769302,5.3290705182E-015,4.38791280945)) ;
#63=CARTESIAN_POINT('Vertex',(-2.39712769302,5.3290705182E-015,-4.38791280945)) ;
#66=CARTESIAN_POINT('Line Origine',(2.39712769302,2.,4.38791280945)) ;
#70=CARTESIAN_POINT('Vertex',(2.39712769302,1.09308214264,4.38791280945)) ;
#73=CARTESIAN_POINT('Axis2P3D Location',(0.,1.09308214264,0.)) ;
#77=CARTESIAN_POINT('Vertex',(-2.39712769302,1.09308214264,-4.38791280945)) ;
#80=CARTESIAN_POINT('Line Origine',(-2.39712769302,2.,-4.38791280945)) ;
#92=CARTESIAN_POINT('Axis2P3D Location',(0.,5.3290705182E-015,0.)) ;
#97=CARTESIAN_POINT('Axis2P3D Location',(0.,1.09308214264,0.)) ;
#109=CARTESIAN_POINT('Axis2P3D Location',(0.,2.,0.)) ;
#114=CARTESIAN_POINT('Axis2P3D Location',(1.91770215442,2.,3.51033024756)) ;
#118=CARTESIAN_POINT('Vertex',(2.39712769302,2.90691785736,4.38791280945)) ;
#121=CARTESIAN_POINT('Axis2P3D Location',(0.,2.90691785736,0.)) ;
#125=CARTESIAN_POINT('Vertex',(-2.39712769302,2.90691785736,-4.38791280945)) ;
#128=CARTESIAN_POINT('Axis2P3D Location',(-1.91770215442,2.,-3.51033024756)) ;
#140=CARTESIAN_POINT('Axis2P3D Location',(0.,2.90691785736,0.)) ;
#152=CARTESIAN_POINT('Line Origine',(2.39712769302,2.,4.38791280945)) ;
#156=CARTESIAN_POINT('Vertex',(2.39712769302,4.,4.38791280945)) ;
#159=CARTESIAN_POINT('Axis2P3D Location',(0.,4.,0.)) ;
#163=CARTESIAN_POINT('Vertex',(-2.39712769302,4.,-4.38791280945)) ;
#166=CARTESIAN_POINT('Line Origine',(-2.39712769302,2.,-4.38791280945)) ;
#178=CARTESIAN_POINT('Axis2P3D Location',(0.,4.,0.)) ;
#190=CARTESIAN_POINT('Axis2P3D Location',(0.,4.,6.)) ;
#195=CARTESIAN_POINT('Axis2P3D Location',(-1.62596924202E-016,4.,0.)) ;
#199=CARTESIAN_POINT('Vertex',(-2.7806681239,4.,-5.08997885896)) ;
#201=CARTESIAN_POINT('Vertex',(2.7806681239,4.,5.08997885896)) ;
#204=CARTESIAN_POINT('Axis2P3D Location',(-1.62596924202E-016,4.,0.)) ;
#218=CARTESIAN_POINT('Axis2P3D Location',(-1.7763568394E-015,3.8,-3.5527136788E-015)) ;
#223=CARTESIAN_POINT('Axis2P3D Location',(-2.7806681239,3.8,-5.08997885896)) ;
#227=CARTESIAN_POINT('Vertex',(-2.87655323163,3.8,-5.26549537134)) ;
#230=CARTESIAN_POINT('Axis2P3D Location',(-1.7763568394E-015,3.8,-3.5527136788E-015)) ;
#234=CARTESIAN_POINT('Vertex',(2.87655323163,3.8,5.26549537134)) ;
#237=CARTESIAN_POINT('Axis2P3D Location',(2.7806681239,3.8,5.08997885896)) ;
#249=CARTESIAN_POINT('Axis2P3D Location',(-5.3290705182E-015,3.8,1.11022302463E-016)) ;
#254=CARTESIAN_POINT('Axis2P3D Location',(-5.3290705182E-015,3.8,1.11022302463E-016)) ;
#266=CARTESIAN_POINT('Axis2P3D Location',(0.,0.,5.)) ;
#271=CARTESIAN_POINT('Axis2P3D Location',(-1.62596924202E-016,0.,-8.881784197E-016)) ;
#275=CARTESIAN_POINT('Vertex',(2.7806681239,0.,5.08997885896)) ;
#277=CARTESIAN_POINT('Vertex',(-2.7806681239,0.,-5.08997885896)) ;
#280=CARTESIAN_POINT('Axis2P3D Location',(-1.62596924202E-016,0.,-8.881784197E-016)) ;
#294=CARTESIAN_POINT('Axis2P3D Location',(0.,2.,0.)) ;
#299=CARTESIAN_POINT('Line Origine',(-2.87655323163,2.,-5.26549537134)) ;
#303=CARTESIAN_POINT('Vertex',(-2.87655323163,0.2,-5.26549537134)) ;
#306=CARTESIAN_POINT('Line Origine',(2.87655323163,2.,5.26549537134)) ;
#310=CARTESIAN_POINT('Vertex',(2.87655323163,0.2,5.26549537134)) ;
#313=CARTESIAN_POINT('Axis2P3D Location',(0.,0.2,0.)) ;
#325=CARTESIAN_POINT('Axis2P3D Location',(0.,0.2,0.)) ;
#337=CARTESIAN_POINT('Axis2P3D Location',(-1.7763568394E-015,0.2,-3.5527136788E-015)) ;
#342=CARTESIAN_POINT('Axis2P3D Location',(-2.7806681239,0.2,-5.08997885896)) ;
#347=CARTESIAN_POINT('Axis2P3D Location',(2.7806681239,0.2,5.08997885896)) ;
#359=CARTESIAN_POINT('Axis2P3D Location',(-5.3290705182E-015,0.2,1.11022302463E-016)) ;
#375=CARTESIAN_POINT('Axis2P3D Location',(0.,2.,0.)) ;
#380=CARTESIAN_POINT('Axis2P3D Location',(0.,4.,0.)) ;
#384=CARTESIAN_POINT('Vertex',(1.43827661581,4.,2.63274768567)) ;
#386=CARTESIAN_POINT('Vertex',(-1.43827661581,4.,-2.63274768567)) ;
#389=CARTESIAN_POINT('Line Origine',(1.43827661581,2.,2.63274768567)) ;
#393=CARTESIAN_POINT('Vertex',(1.43827661581,2.90691785736,2.63274768567)) ;
#396=CARTESIAN_POINT('Axis2P3D Location',(0.,2.90691785736,0.)) ;
#400=CARTESIAN_POINT('Vertex',(-1.43827661581,2.90691785736,-2.63274768567)) ;
#403=CARTESIAN_POINT('Line Origine',(-1.43827661581,2.,-2.63274768567)) ;
#415=CARTESIAN_POINT('Axis2P3D Location',(0.,4.,0.)) ;
#420=CARTESIAN_POINT('Axis2P3D Location',(0.,2.90691785736,0.)) ;
#432=CARTESIAN_POINT('Axis2P3D Location',(0.,2.,0.)) ;
#437=CARTESIAN_POINT('Axis2P3D Location',(1.91770215442,2.,3.51033024756)) ;
#441=CARTESIAN_POINT('Vertex',(1.43827661581,1.09308214264,2.63274768567)) ;
#444=CARTESIAN_POINT('Axis2P3D Location',(0.,1.09308214264,0.)) ;
#448=CARTESIAN_POINT('Vertex',(-1.43827661581,1.09308214264,-2.63274768567)) ;
#451=CARTESIAN_POINT('Axis2P3D Location',(-1.91770215442,2.,-3.51033024756)) ;
#463=CARTESIAN_POINT('Axis2P3D Location',(0.,1.09308214264,0.)) ;
#475=CARTESIAN_POINT('Line Origine',(1.43827661581,2.,2.63274768567)) ;
#479=CARTESIAN_POINT('Vertex',(1.43827661581,4.4408920985E-016,2.63274768567)) ;
#482=CARTESIAN_POINT('Axis2P3D Location',(0.,4.4408920985E-016,0.)) ;
#486=CARTESIAN_POINT('Vertex',(-1.43827661581,4.4408920985E-016,-2.63274768567)) ;
#489=CARTESIAN_POINT('Line Origine',(-1.43827661581,2.,-2.63274768567)) ;
#501=CARTESIAN_POINT('Axis2P3D Location',(0.,4.4408920985E-016,0.)) ;
#517=CARTESIAN_POINT('Axis2P3D Location',(-2.82528953004E-016,4.,-1.7763568394E-015)) ;
#521=CARTESIAN_POINT('Vertex',(1.05473618493,4.,1.93068163616)) ;
#523=CARTESIAN_POINT('Vertex',(-1.05473618493,4.,-1.93068163616)) ;
#526=CARTESIAN_POINT('Axis2P3D Location',(-2.82528953004E-016,4.,-1.7763568394E-015)) ;
#536=CARTESIAN_POINT('Axis2P3D Location',(4.4408920985E-016,3.8,-9.99200722163E-016)) ;
#541=CARTESIAN_POINT('Axis2P3D Location',(-1.05473618493,3.8,-1.93068163616)) ;
#545=CARTESIAN_POINT('Vertex',(-0.958851077208,3.8,-1.75516512378)) ;
#548=CARTESIAN_POINT('Axis2P3D Location',(1.05473618493,3.8,1.93068163616)) ;
#552=CARTESIAN_POINT('Vertex',(0.958851077208,3.8,1.75516512378)) ;
#555=CARTESIAN_POINT('Axis2P3D Location',(4.4408920985E-016,3.8,-9.99200722163E-016)) ;
#567=CARTESIAN_POINT('Axis2P3D Location',(-6.66133814775E-016,3.8,-6.59194920871E-017)) ;
#572=CARTESIAN_POINT('Axis2P3D Location',(-6.66133814775E-016,3.8,-6.59194920871E-017)) ;
#588=CARTESIAN_POINT('Axis2P3D Location',(-7.0632238251E-017,0.,0.)) ;
#592=CARTESIAN_POINT('Vertex',(1.05473618493,0.,1.93068163616)) ;
#594=CARTESIAN_POINT('Vertex',(-1.05473618493,0.,-1.93068163616)) ;
#597=CARTESIAN_POINT('Axis2P3D Location',(-7.0632238251E-017,0.,0.)) ;
#607=CARTESIAN_POINT('Axis2P3D Location',(0.,2.,0.)) ;
#612=CARTESIAN_POINT('Axis2P3D Location',(0.,0.2,0.)) ;
#616=CARTESIAN_POINT('Vertex',(0.958851077208,0.2,1.75516512378)) ;
#618=CARTESIAN_POINT('Vertex',(-0.958851077208,0.2,-1.75516512378)) ;
#621=CARTESIAN_POINT('Line Origine',(0.958851077208,2.,1.75516512378)) ;
#626=CARTESIAN_POINT('Line Origine',(-0.958851077208,2.,-1.75516512378)) ;
#638=CARTESIAN_POINT('Axis2P3D Location',(0.,0.2,0.)) ;
#650=CARTESIAN_POINT('Axis2P3D Location',(2.22044604925E-016,0.2,-4.51028103754E-017)) ;
#655=CARTESIAN_POINT('Axis2P3D Location',(1.05473618493,0.2,1.93068163616)) ;
#660=CARTESIAN_POINT('Axis2P3D Location',(-1.05473618493,0.2,-1.93068163616)) ;
#672=CARTESIAN_POINT('Axis2P3D Location',(4.4408920985E-016,0.2,-6.66133814775E-016)) ;
#686=CARTESIAN_POINT('Axis2P3D Location',(0.,3.9,0.)) ;
#691=CARTESIAN_POINT('Axis2P3D Location',(0.,3.9,0.)) ;
#695=CARTESIAN_POINT('Vertex',(2.22742990676,3.9,4.07728309531)) ;
#697=CARTESIAN_POINT('Vertex',(-2.22742990676,3.9,-4.07728309531)) ;
#700=CARTESIAN_POINT('Line Origine',(2.2763218845,3.82859259966,4.16677926024)) ;
#704=CARTESIAN_POINT('Vertex',(2.32521386223,3.75718519933,4.25627542517)) ;
#707=CARTESIAN_POINT('Axis2P3D Location',(0.,3.75718519933,0.)) ;
#711=CARTESIAN_POINT('Vertex',(-2.32521386223,3.75718519933,-4.25627542517)) ;
#714=CARTESIAN_POINT('Line Origine',(-2.2763218845,3.82859259966,-4.16677926024)) ;
#726=CARTESIAN_POINT('Axis2P3D Location',(0.,3.9,0.)) ;
#731=CARTESIAN_POINT('Axis2P3D Location',(0.,3.75718519933,0.)) ;
#743=CARTESIAN_POINT('Axis2P3D Location',(0.,3.75718519933,0.)) ;
#748=CARTESIAN_POINT('Line Origine',(2.34918513916,3.82859259966,4.30015455326)) ;
#752=CARTESIAN_POINT('Vertex',(2.37315641609,3.9,4.34403368136)) ;
#755=CARTESIAN_POINT('Axis2P3D Location',(0.,3.9,0.)) ;
#759=CARTESIAN_POINT('Vertex',(-2.37315641609,3.9,-4.34403368136)) ;
#762=CARTESIAN_POINT('Line Origine',(-2.34918513916,3.82859259966,-4.30015455326)) ;
#774=CARTESIAN_POINT('Axis2P3D Location',(0.,3.9,0.)) ;
#786=CARTESIAN_POINT('Axis2P3D Location',(0.,2.,0.)) ;
#791=CARTESIAN_POINT('Line Origine',(2.37315641609,2.,4.34403368136)) ;
#795=CARTESIAN_POINT('Vertex',(2.37315641609,3.72565532044,4.34403368136)) ;
#798=CARTESIAN_POINT('Axis2P3D Location',(0.,3.72565532044,0.)) ;
#802=CARTESIAN_POINT('Vertex',(-2.37315641609,3.72565532044,-4.34403368136)) ;
#805=CARTESIAN_POINT('Line Origine',(-2.37315641609,2.,-4.34403368136)) ;
#817=CARTESIAN_POINT('Axis2P3D Location',(0.,3.72565532044,0.)) ;
#829=CARTESIAN_POINT('Axis2P3D Location',(0.,3.61791235126,0.)) ;
#834=CARTESIAN_POINT('Line Origine',(2.35507190007,3.67178383585,4.31093019682)) ;
#838=CARTESIAN_POINT('Vertex',(2.33698738404,3.61791235126,4.27782671228)) ;
#841=CARTESIAN_POINT('Axis2P3D Location',(0.,3.61791235126,0.)) ;
#845=CARTESIAN_POINT('Vertex',(-2.33698738404,3.61791235126,-4.27782671228)) ;
#848=CARTESIAN_POINT('Line Origine',(-2.35507190007,3.67178383585,-4.31093019682)) ;
#860=CARTESIAN_POINT('Axis2P3D Location',(0.,3.61791235126,0.)) ;
#872=CARTESIAN_POINT('Axis2P3D Location',(0.,3.8,0.)) ;
#877=CARTESIAN_POINT('Line Origine',(2.27465053082,3.70895617563,4.16371986785)) ;
#881=CARTESIAN_POINT('Vertex',(2.2123136776,3.8,4.04961302342)) ;
#884=CARTESIAN_POINT('Axis2P3D Location',(0.,3.8,0.)) ;
#888=CARTESIAN_POINT('Vertex',(-2.2123136776,3.8,-4.04961302342)) ;
#891=CARTESIAN_POINT('Line Origine',(-2.27465053082,3.70895617563,-4.16371986785)) ;
#903=CARTESIAN_POINT('Axis2P3D Location',(0.,3.8,0.)) ;
#915=CARTESIAN_POINT('Axis2P3D Location',(0.,2.,0.)) ;
#920=CARTESIAN_POINT('Axis2P3D Location',(0.,3.8,0.)) ;
#924=CARTESIAN_POINT('Vertex',(1.44786512658,3.8,2.65029933691)) ;
#926=CARTESIAN_POINT('Vertex',(-1.44786512658,3.8,-2.65029933691)) ;
#929=CARTESIAN_POINT('Line Origine',(1.44786512658,2.,2.65029933691)) ;
#933=CARTESIAN_POINT('Vertex',(1.44786512658,3.9,2.65029933691)) ;
#936=CARTESIAN_POINT('Axis2P3D Location',(0.,3.9,0.)) ;
#940=CARTESIAN_POINT('Vertex',(-1.44786512658,3.9,-2.65029933691)) ;
#943=CARTESIAN_POINT('Line Origine',(-1.44786512658,2.,-2.65029933691)) ;
#955=CARTESIAN_POINT('Axis2P3D Location',(0.,3.8,0.)) ;
#960=CARTESIAN_POINT('Axis2P3D Location',(0.,3.9,0.)) ;
#972=CARTESIAN_POINT('Axis2P3D Location',(0.,3.8,4.6145094482)) ;
#986=CARTESIAN_POINT('Axis2P3D Location',(0.,3.9,3.02)) ;
#1002=CARTESIAN_POINT('Axis2P3D Location',(0.,0.1,0.)) ;
#1006=CARTESIAN_POINT('Vertex',(1.44786512658,0.1,2.65029933691)) ;
#1008=CARTESIAN_POINT('Vertex',(-1.44786512658,0.1,-2.65029933691)) ;
#1011=CARTESIAN_POINT('Line Origine',(1.44786512658,2.,2.65029933691)) ;
#1015=CARTESIAN_POINT('Vertex',(1.44786512658,0.2,2.65029933691)) ;
#1018=CARTESIAN_POINT('Axis2P3D Location',(0.,0.2,0.)) ;
#1022=CARTESIAN_POINT('Vertex',(-1.44786512658,0.2,-2.65029933691)) ;
#1025=CARTESIAN_POINT('Line Origine',(-1.44786512658,2.,-2.65029933691)) ;
#1037=CARTESIAN_POINT('Axis2P3D Location',(0.,0.1,0.)) ;
#1042=CARTESIAN_POINT('Axis2P3D Location',(0.,0.2,0.)) ;
#1054=CARTESIAN_POINT('Axis2P3D Location',(0.,0.2,0.)) ;
#1059=CARTESIAN_POINT('Axis2P3D Location',(0.,0.2,0.)) ;
#1063=CARTESIAN_POINT('Vertex',(2.2123136776,0.2,4.04961302342)) ;
#1065=CARTESIAN_POINT('Vertex',(-2.2123136776,0.2,-4.04961302342)) ;
#1068=CARTESIAN_POINT('Line Origine',(2.27465053082,0.291043824369,4.16371986785)) ;
#1072=CARTESIAN_POINT('Vertex',(2.33698738404,0.382087648738,4.27782671228)) ;
#1075=CARTESIAN_POINT('Axis2P3D Location',(0.,0.382087648738,0.)) ;
#1079=CARTESIAN_POINT('Vertex',(-2.33698738404,0.382087648738,-4.27782671228)) ;
#1082=CARTESIAN_POINT('Line Origine',(-2.27465053082,0.291043824369,-4.16371986785)) ;
#1094=CARTESIAN_POINT('Axis2P3D Location',(0.,0.2,0.)) ;
#1099=CARTESIAN_POINT('Axis2P3D Location',(0.,0.382087648738,0.)) ;
#1111=CARTESIAN_POINT('Axis2P3D Location',(0.,0.382087648738,0.)) ;
#1116=CARTESIAN_POINT('Line Origine',(2.35507190007,0.32821616415,4.31093019682)) ;
#1120=CARTESIAN_POINT('Vertex',(2.37315641609,0.274344679562,4.34403368136)) ;
#1123=CARTESIAN_POINT('Axis2P3D Location',(0.,0.274344679562,0.)) ;
#1127=CARTESIAN_POINT('Vertex',(-2.37315641609,0.274344679562,-4.34403368136)) ;
#1130=CARTESIAN_POINT('Line Origine',(-2.35507190007,0.32821616415,-4.31093019682)) ;
#1142=CARTESIAN_POINT('Axis2P3D Location',(0.,0.274344679562,0.)) ;
#1154=CARTESIAN_POINT('Line Origine',(2.37315641609,2.,4.34403368136)) ;
#1158=CARTESIAN_POINT('Vertex',(2.37315641609,0.1,4.34403368136)) ;
#1161=CARTESIAN_POINT('Axis2P3D Location',(0.,0.1,0.)) ;
#1165=CARTESIAN_POINT('Vertex',(-2.37315641609,0.1,-4.34403368136)) ;
#1168=CARTESIAN_POINT('Line Origine',(-2.37315641609,2.,-4.34403368136)) ;
#1180=CARTESIAN_POINT('Axis2P3D Location',(0.,0.1,0.)) ;
#1192=CARTESIAN_POINT('Axis2P3D Location',(0.,0.242814800674,0.)) ;
#1197=CARTESIAN_POINT('Line Origine',(2.34918513916,0.171407400337,4.30015455326)) ;
#1201=CARTESIAN_POINT('Vertex',(2.32521386223,0.242814800674,4.25627542517)) ;
#1204=CARTESIAN_POINT('Axis2P3D Location',(0.,0.242814800674,0.)) ;
#1208=CARTESIAN_POINT('Vertex',(-2.32521386223,0.242814800674,-4.25627542517)) ;
#1211=CARTESIAN_POINT('Line Origine',(-2.34918513916,0.171407400337,-4.30015455326)) ;
#1223=CARTESIAN_POINT('Axis2P3D Location',(0.,0.242814800674,0.)) ;
#1235=CARTESIAN_POINT('Axis2P3D Location',(0.,0.1,0.)) ;
#1240=CARTESIAN_POINT('Line Origine',(2.2763218845,0.171407400337,4.16677926024)) ;
#1244=CARTESIAN_POINT('Vertex',(2.22742990676,0.1,4.07728309531)) ;
#1247=CARTESIAN_POINT('Axis2P3D Location',(0.,0.1,0.)) ;
#1251=CARTESIAN_POINT('Vertex',(-2.22742990676,0.1,-4.07728309531)) ;
#1254=CARTESIAN_POINT('Line Origine',(-2.2763218845,0.171407400337,-4.16677926024)) ;
#1266=CARTESIAN_POINT('Axis2P3D Location',(0.,0.1,0.)) ;
#1278=CARTESIAN_POINT('Axis2P3D Location',(0.,0.1,3.02)) ;
#1292=CARTESIAN_POINT('Axis2P3D Location',(0.,0.2,4.6145094482)) ;
#53=DIRECTION('Axis2P3D Direction',(0.,1.,0.)) ;
#54=DIRECTION('Axis2P3D XDirection',(0.479425538604,-0.,0.87758256189)) ;
#58=DIRECTION('Axis2P3D Direction',(0.,1.,0.)) ;
#67=DIRECTION('Vector Direction',(0.,1.,0.)) ;
#74=DIRECTION('Axis2P3D Direction',(0.,1.,0.)) ;
#81=DIRECTION('Vector Direction',(0.,1.,0.)) ;
#93=DIRECTION('Axis2P3D Direction',(0.,1.,0.)) ;
#98=DIRECTION('Axis2P3D Direction',(0.,1.,0.)) ;
#110=DIRECTION('Axis2P3D Direction',(0.,1.,0.)) ;
#111=DIRECTION('Axis2P3D XDirection',(0.479425538604,0.,0.87758256189)) ;
#115=DIRECTION('Axis2P3D Direction',(-0.87758256189,0.,0.479425538604)) ;
#122=DIRECTION('Axis2P3D Direction',(0.,1.,0.)) ;
#129=DIRECTION('Axis2P3D Direction',(0.87758256189,0.,-0.479425538604)) ;
#141=DIRECTION('Axis2P3D Direction',(0.,1.,0.)) ;
#153=DIRECTION('Vector Direction',(0.,1.,0.)) ;
#160=DIRECTION('Axis2P3D Direction',(0.,1.,0.)) ;
#167=DIRECTION('Vector Direction',(0.,1.,0.)) ;
#179=DIRECTION('Axis2P3D Direction',(0.,1.,0.)) ;
#191=DIRECTION('Axis2P3D Direction',(0.,1.,0.)) ;
#192=DIRECTION('Axis2P3D XDirection',(1.,-0.,0.)) ;
#196=DIRECTION('Axis2P3D Direction',(0.,1.,0.)) ;
#205=DIRECTION('Axis2P3D Direction',(0.,1.,0.)) ;
#219=DIRECTION('Axis2P3D Direction',(-0.,1.,0.)) ;
#220=DIRECTION('Axis2P3D XDirection',(-0.479425538604,0.,-0.87758256189)) ;
#224=DIRECTION('Axis2P3D Direction',(0.87758256189,0.,-0.479425538604)) ;
#231=DIRECTION('Axis2P3D Direction',(-0.,1.,0.)) ;
#238=DIRECTION('Axis2P3D Direction',(-0.87758256189,-0.,0.479425538604)) ;
#250=DIRECTION('Axis2P3D Direction',(0.,1.,-0.)) ;
#251=DIRECTION('Axis2P3D XDirection',(0.479425538604,0.,0.87758256189)) ;
#255=DIRECTION('Axis2P3D Direction',(0.,1.,-0.)) ;
#267=DIRECTION('Axis2P3D Direction',(0.,1.,0.)) ;
#268=DIRECTION('Axis2P3D XDirection',(1.,-0.,0.)) ;
#272=DIRECTION('Axis2P3D Direction',(0.,1.,0.)) ;
#281=DIRECTION('Axis2P3D Direction',(0.,1.,0.)) ;
#295=DIRECTION('Axis2P3D Direction',(0.,1.,0.)) ;
#296=DIRECTION('Axis2P3D XDirection',(0.479425538604,-0.,0.87758256189)) ;
#300=DIRECTION('Vector Direction',(0.,1.,0.)) ;
#307=DIRECTION('Vector Direction',(0.,1.,0.)) ;
#314=DIRECTION('Axis2P3D Direction',(0.,1.,0.)) ;
#326=DIRECTION('Axis2P3D Direction',(0.,1.,0.)) ;
#338=DIRECTION('Axis2P3D Direction',(-0.,1.,0.)) ;
#339=DIRECTION('Axis2P3D XDirection',(-0.479425538604,0.,-0.87758256189)) ;
#343=DIRECTION('Axis2P3D Direction',(0.87758256189,0.,-0.479425538604)) ;
#348=DIRECTION('Axis2P3D Direction',(-0.87758256189,-0.,0.479425538604)) ;
#360=DIRECTION('Axis2P3D Direction',(0.,1.,-0.)) ;
#361=DIRECTION('Axis2P3D XDirection',(0.479425538604,0.,0.87758256189)) ;
#376=DIRECTION('Axis2P3D Direction',(0.,1.,0.)) ;
#377=DIRECTION('Axis2P3D XDirection',(0.479425538604,-0.,0.87758256189)) ;
#381=DIRECTION('Axis2P3D Direction',(0.,1.,0.)) ;
#390=DIRECTION('Vector Direction',(0.,1.,0.)) ;
#397=DIRECTION('Axis2P3D Direction',(0.,1.,0.)) ;
#404=DIRECTION('Vector Direction',(0.,1.,0.)) ;
#416=DIRECTION('Axis2P3D Direction',(0.,1.,0.)) ;
#421=DIRECTION('Axis2P3D Direction',(0.,1.,0.)) ;
#433=DIRECTION('Axis2P3D Direction',(0.,1.,0.)) ;
#434=DIRECTION('Axis2P3D XDirection',(0.479425538604,0.,0.87758256189)) ;
#438=DIRECTION('Axis2P3D Direction',(-0.87758256189,0.,0.479425538604)) ;
#445=DIRECTION('Axis2P3D Direction',(0.,1.,0.)) ;
#452=DIRECTION('Axis2P3D Direction',(0.87758256189,0.,-0.479425538604)) ;
#464=DIRECTION('Axis2P3D Direction',(0.,1.,0.)) ;
#476=DIRECTION('Vector Direction',(0.,1.,0.)) ;
#483=DIRECTION('Axis2P3D Direction',(0.,1.,0.)) ;
#490=DIRECTION('Vector Direction',(0.,1.,0.)) ;
#502=DIRECTION('Axis2P3D Direction',(0.,1.,0.)) ;
#518=DIRECTION('Axis2P3D Direction',(0.,1.,0.)) ;
#527=DIRECTION('Axis2P3D Direction',(0.,1.,0.)) ;
#537=DIRECTION('Axis2P3D Direction',(-0.,1.,0.)) ;
#538=DIRECTION('Axis2P3D XDirection',(-0.479425538604,0.,-0.87758256189)) ;
#542=DIRECTION('Axis2P3D Direction',(0.87758256189,0.,-0.479425538604)) ;
#549=DIRECTION('Axis2P3D Direction',(-0.87758256189,-0.,0.479425538604)) ;
#556=DIRECTION('Axis2P3D Direction',(-0.,1.,0.)) ;
#568=DIRECTION('Axis2P3D Direction',(0.,1.,-0.)) ;
#569=DIRECTION('Axis2P3D XDirection',(0.479425538604,0.,0.87758256189)) ;
#573=DIRECTION('Axis2P3D Direction',(0.,1.,-0.)) ;
#589=DIRECTION('Axis2P3D Direction',(0.,1.,0.)) ;
#598=DIRECTION('Axis2P3D Direction',(0.,1.,0.)) ;
#608=DIRECTION('Axis2P3D Direction',(0.,1.,0.)) ;
#609=DIRECTION('Axis2P3D XDirection',(0.479425538604,-0.,0.87758256189)) ;
#613=DIRECTION('Axis2P3D Direction',(0.,1.,0.)) ;
#622=DIRECTION('Vector Direction',(0.,1.,0.)) ;
#627=DIRECTION('Vector Direction',(0.,1.,0.)) ;
#639=DIRECTION('Axis2P3D Direction',(0.,1.,0.)) ;
#651=DIRECTION('Axis2P3D Direction',(0.,1.,-0.)) ;
#652=DIRECTION('Axis2P3D XDirection',(0.479425538604,0.,0.87758256189)) ;
#656=DIRECTION('Axis2P3D Direction',(-0.87758256189,0.,0.479425538604)) ;
#661=DIRECTION('Axis2P3D Direction',(0.87758256189,-0.,-0.479425538604)) ;
#673=DIRECTION('Axis2P3D Direction',(-0.,1.,0.)) ;
#674=DIRECTION('Axis2P3D XDirection',(-0.479425538604,0.,-0.87758256189)) ;
#687=DIRECTION('Axis2P3D Direction',(-0.,-1.,-0.)) ;
#688=DIRECTION('Axis2P3D XDirection',(0.479425538604,0.,0.87758256189)) ;
#692=DIRECTION('Axis2P3D Direction',(0.,-1.,-0.)) ;
#701=DIRECTION('Vector Direction',(0.392722410032,-0.573576436351,0.718873549605)) ;
#708=DIRECTION('Axis2P3D Direction',(0.,-1.,-0.)) ;
#715=DIRECTION('Vector Direction',(-0.392722410032,-0.573576436351,-0.718873549605)) ;
#727=DIRECTION('Axis2P3D Direction',(0.,-1.,-0.)) ;
#732=DIRECTION('Axis2P3D Direction',(0.,-1.,-0.)) ;
#744=DIRECTION('Axis2P3D Direction',(0.,1.,0.)) ;
#745=DIRECTION('Axis2P3D XDirection',(0.479425538604,0.,0.87758256189)) ;
#749=DIRECTION('Vector Direction',(0.274987191928,0.819152044289,0.503360678453)) ;
#756=DIRECTION('Axis2P3D Direction',(0.,1.,0.)) ;
#763=DIRECTION('Vector Direction',(-0.274987191928,0.819152044289,-0.503360678453)) ;
#775=DIRECTION('Axis2P3D Direction',(0.,1.,0.)) ;
#787=DIRECTION('Axis2P3D Direction',(0.,1.,0.)) ;
#788=DIRECTION('Axis2P3D XDirection',(0.479425538604,-0.,0.87758256189)) ;
#792=DIRECTION('Vector Direction',(0.,1.,0.)) ;
#799=DIRECTION('Axis2P3D Direction',(0.,1.,0.)) ;
#806=DIRECTION('Vector Direction',(0.,1.,0.)) ;
#818=DIRECTION('Axis2P3D Direction',(0.,1.,0.)) ;
#830=DIRECTION('Axis2P3D Direction',(0.,1.,0.)) ;
#831=DIRECTION('Axis2P3D XDirection',(0.479425538604,0.,0.87758256189)) ;
#835=DIRECTION('Vector Direction',(0.274987191928,0.819152044289,0.503360678453)) ;
#842=DIRECTION('Axis2P3D Direction',(0.,1.,0.)) ;
#849=DIRECTION('Vector Direction',(-0.274987191928,0.819152044289,-0.503360678453)) ;
#861=DIRECTION('Axis2P3D Direction',(0.,1.,0.)) ;
#873=DIRECTION('Axis2P3D Direction',(-0.,-1.,-0.)) ;
#874=DIRECTION('Axis2P3D XDirection',(0.479425538604,0.,0.87758256189)) ;
#878=DIRECTION('Vector Direction',(0.392722410032,-0.573576436351,0.718873549605)) ;
#885=DIRECTION('Axis2P3D Direction',(0.,-1.,-0.)) ;
#892=DIRECTION('Vector Direction',(-0.392722410032,-0.573576436351,-0.718873549605)) ;
#904=DIRECTION('Axis2P3D Direction',(0.,-1.,-0.)) ;
#916=DIRECTION('Axis2P3D Direction',(0.,1.,0.)) ;
#917=DIRECTION('Axis2P3D XDirection',(0.479425538604,-0.,0.87758256189)) ;
#921=DIRECTION('Axis2P3D Direction',(0.,1.,0.)) ;
#930=DIRECTION('Vector Direction',(0.,1.,0.)) ;
#937=DIRECTION('Axis2P3D Direction',(0.,1.,0.)) ;
#944=DIRECTION('Vector Direction',(0.,1.,0.)) ;
#956=DIRECTION('Axis2P3D Direction',(0.,1.,0.)) ;
#961=DIRECTION('Axis2P3D Direction',(0.,1.,0.)) ;
#973=DIRECTION('Axis2P3D Direction',(0.,1.,0.)) ;
#974=DIRECTION('Axis2P3D XDirection',(1.,-0.,0.)) ;
#987=DIRECTION('Axis2P3D Direction',(0.,1.,0.)) ;
#988=DIRECTION('Axis2P3D XDirection',(1.,-0.,0.)) ;
#1003=DIRECTION('Axis2P3D Direction',(0.,1.,0.)) ;
#1012=DIRECTION('Vector Direction',(0.,1.,0.)) ;
#1019=DIRECTION('Axis2P3D Direction',(0.,1.,0.)) ;
#1026=DIRECTION('Vector Direction',(0.,1.,0.)) ;
#1038=DIRECTION('Axis2P3D Direction',(0.,1.,0.)) ;
#1043=DIRECTION('Axis2P3D Direction',(0.,1.,0.)) ;
#1055=DIRECTION('Axis2P3D Direction',(0.,1.,0.)) ;
#1056=DIRECTION('Axis2P3D XDirection',(0.479425538604,0.,0.87758256189)) ;
#1060=DIRECTION('Axis2P3D Direction',(0.,1.,0.)) ;
#1069=DIRECTION('Vector Direction',(0.392722410032,0.573576436351,0.718873549605)) ;
#1076=DIRECTION('Axis2P3D Direction',(0.,1.,0.)) ;
#1083=DIRECTION('Vector Direction',(-0.392722410032,0.573576436351,-0.718873549605)) ;
#1095=DIRECTION('Axis2P3D Direction',(0.,1.,0.)) ;
#1100=DIRECTION('Axis2P3D Direction',(0.,1.,0.)) ;
#1112=DIRECTION('Axis2P3D Direction',(-0.,-1.,-0.)) ;
#1113=DIRECTION('Axis2P3D XDirection',(0.479425538604,0.,0.87758256189)) ;
#1117=DIRECTION('Vector Direction',(0.274987191928,-0.819152044289,0.503360678453)) ;
#1124=DIRECTION('Axis2P3D Direction',(0.,-1.,-0.)) ;
#1131=DIRECTION('Vector Direction',(-0.274987191928,-0.819152044289,-0.503360678453)) ;
#1143=DIRECTION('Axis2P3D Direction',(0.,-1.,-0.)) ;
#1155=DIRECTION('Vector Direction',(0.,1.,0.)) ;
#1162=DIRECTION('Axis2P3D Direction',(0.,1.,0.)) ;
#1169=DIRECTION('Vector Direction',(0.,1.,0.)) ;
#1181=DIRECTION('Axis2P3D Direction',(0.,1.,0.)) ;
#1193=DIRECTION('Axis2P3D Direction',(-0.,-1.,-0.)) ;
#1194=DIRECTION('Axis2P3D XDirection',(0.479425538604,0.,0.87758256189)) ;
#1198=DIRECTION('Vector Direction',(0.274987191928,-0.819152044289,0.503360678453)) ;
#1205=DIRECTION('Axis2P3D Direction',(0.,-1.,-0.)) ;
#1212=DIRECTION('Vector Direction',(-0.274987191928,-0.819152044289,-0.503360678453)) ;
#1224=DIRECTION('Axis2P3D Direction',(0.,-1.,-0.)) ;
#1236=DIRECTION('Axis2P3D Direction',(0.,1.,0.)) ;
#1237=DIRECTION('Axis2P3D XDirection',(0.479425538604,0.,0.87758256189)) ;
#1241=DIRECTION('Vector Direction',(0.392722410032,0.573576436351,0.718873549605)) ;
#1248=DIRECTION('Axis2P3D Direction',(0.,1.,0.)) ;
#1255=DIRECTION('Vector Direction',(-0.392722410032,0.573576436351,-0.718873549605)) ;
#1267=DIRECTION('Axis2P3D Direction',(0.,1.,0.)) ;
#1279=DIRECTION('Axis2P3D Direction',(0.,1.,0.)) ;
#1280=DIRECTION('Axis2P3D XDirection',(1.,-0.,0.)) ;
#1293=DIRECTION('Axis2P3D Direction',(0.,1.,0.)) ;
#1294=DIRECTION('Axis2P3D XDirection',(1.,-0.,0.)) ;
#48=AXIS2_PLACEMENT_3D(' ',#47,$,$) ;
#55=AXIS2_PLACEMENT_3D('Cylinder Axis2P3D',#52,#53,#54) ;
#59=AXIS2_PLACEMENT_3D('Circle Axis2P3D',#57,#58,$) ;
#75=AXIS2_PLACEMENT_3D('Circle Axis2P3D',#73,#74,$) ;
#94=AXIS2_PLACEMENT_3D('Circle Axis2P3D',#92,#93,$) ;
#99=AXIS2_PLACEMENT_3D('Circle Axis2P3D',#97,#98,$) ;
#112=AXIS2_PLACEMENT_3D('Torus Axis2P3D',#109,#110,#111) ;
#116=AXIS2_PLACEMENT_3D('Circle Axis2P3D',#114,#115,$) ;
#123=AXIS2_PLACEMENT_3D('Circle Axis2P3D',#121,#122,$) ;
#130=AXIS2_PLACEMENT_3D('Circle Axis2P3D',#128,#129,$) ;
#142=AXIS2_PLACEMENT_3D('Circle Axis2P3D',#140,#141,$) ;
#161=AXIS2_PLACEMENT_3D('Circle Axis2P3D',#159,#160,$) ;
#180=AXIS2_PLACEMENT_3D('Circle Axis2P3D',#178,#179,$) ;
#193=AXIS2_PLACEMENT_3D('Plane Axis2P3D',#190,#191,#192) ;
#197=AXIS2_PLACEMENT_3D('Circle Axis2P3D',#195,#196,$) ;
#206=AXIS2_PLACEMENT_3D('Circle Axis2P3D',#204,#205,$) ;
#221=AXIS2_PLACEMENT_3D('Torus Axis2P3D',#218,#219,#220) ;
#225=AXIS2_PLACEMENT_3D('Circle Axis2P3D',#223,#224,$) ;
#232=AXIS2_PLACEMENT_3D('Circle Axis2P3D',#230,#231,$) ;
#239=AXIS2_PLACEMENT_3D('Circle Axis2P3D',#237,#238,$) ;
#252=AXIS2_PLACEMENT_3D('Torus Axis2P3D',#249,#250,#251) ;
#256=AXIS2_PLACEMENT_3D('Circle Axis2P3D',#254,#255,$) ;
#269=AXIS2_PLACEMENT_3D('Plane Axis2P3D',#266,#267,#268) ;
#273=AXIS2_PLACEMENT_3D('Circle Axis2P3D',#271,#272,$) ;
#282=AXIS2_PLACEMENT_3D('Circle Axis2P3D',#280,#281,$) ;
#297=AXIS2_PLACEMENT_3D('Cylinder Axis2P3D',#294,#295,#296) ;
#315=AXIS2_PLACEMENT_3D('Circle Axis2P3D',#313,#314,$) ;
#327=AXIS2_PLACEMENT_3D('Circle Axis2P3D',#325,#326,$) ;
#340=AXIS2_PLACEMENT_3D('Torus Axis2P3D',#337,#338,#339) ;
#344=AXIS2_PLACEMENT_3D('Circle Axis2P3D',#342,#343,$) ;
#349=AXIS2_PLACEMENT_3D('Circle Axis2P3D',#347,#348,$) ;
#362=AXIS2_PLACEMENT_3D('Torus Axis2P3D',#359,#360,#361) ;
#378=AXIS2_PLACEMENT_3D('Cylinder Axis2P3D',#375,#376,#377) ;
#382=AXIS2_PLACEMENT_3D('Circle Axis2P3D',#380,#381,$) ;
#398=AXIS2_PLACEMENT_3D('Circle Axis2P3D',#396,#397,$) ;
#417=AXIS2_PLACEMENT_3D('Circle Axis2P3D',#415,#416,$) ;
#422=AXIS2_PLACEMENT_3D('Circle Axis2P3D',#420,#421,$) ;
#435=AXIS2_PLACEMENT_3D('Torus Axis2P3D',#432,#433,#434) ;
#439=AXIS2_PLACEMENT_3D('Circle Axis2P3D',#437,#438,$) ;
#446=AXIS2_PLACEMENT_3D('Circle Axis2P3D',#444,#445,$) ;
#453=AXIS2_PLACEMENT_3D('Circle Axis2P3D',#451,#452,$) ;
#465=AXIS2_PLACEMENT_3D('Circle Axis2P3D',#463,#464,$) ;
#484=AXIS2_PLACEMENT_3D('Circle Axis2P3D',#482,#483,$) ;
#503=AXIS2_PLACEMENT_3D('Circle Axis2P3D',#501,#502,$) ;
#519=AXIS2_PLACEMENT_3D('Circle Axis2P3D',#517,#518,$) ;
#528=AXIS2_PLACEMENT_3D('Circle Axis2P3D',#526,#527,$) ;
#539=AXIS2_PLACEMENT_3D('Torus Axis2P3D',#536,#537,#538) ;
#543=AXIS2_PLACEMENT_3D('Circle Axis2P3D',#541,#542,$) ;
#550=AXIS2_PLACEMENT_3D('Circle Axis2P3D',#548,#549,$) ;
#557=AXIS2_PLACEMENT_3D('Circle Axis2P3D',#555,#556,$) ;
#570=AXIS2_PLACEMENT_3D('Torus Axis2P3D',#567,#568,#569) ;
#574=AXIS2_PLACEMENT_3D('Circle Axis2P3D',#572,#573,$) ;
#590=AXIS2_PLACEMENT_3D('Circle Axis2P3D',#588,#589,$) ;
#599=AXIS2_PLACEMENT_3D('Circle Axis2P3D',#597,#598,$) ;
#610=AXIS2_PLACEMENT_3D('Cylinder Axis2P3D',#607,#608,#609) ;
#614=AXIS2_PLACEMENT_3D('Circle Axis2P3D',#612,#613,$) ;
#640=AXIS2_PLACEMENT_3D('Circle Axis2P3D',#638,#639,$) ;
#653=AXIS2_PLACEMENT_3D('Torus Axis2P3D',#650,#651,#652) ;
#657=AXIS2_PLACEMENT_3D('Circle Axis2P3D',#655,#656,$) ;
#662=AXIS2_PLACEMENT_3D('Circle Axis2P3D',#660,#661,$) ;
#675=AXIS2_PLACEMENT_3D('Torus Axis2P3D',#672,#673,#674) ;
#689=AXIS2_PLACEMENT_3D('Cone Axis2P3D',#686,#687,#688) ;
#693=AXIS2_PLACEMENT_3D('Circle Axis2P3D',#691,#692,$) ;
#709=AXIS2_PLACEMENT_3D('Circle Axis2P3D',#707,#708,$) ;
#728=AXIS2_PLACEMENT_3D('Circle Axis2P3D',#726,#727,$) ;
#733=AXIS2_PLACEMENT_3D('Circle Axis2P3D',#731,#732,$) ;
#746=AXIS2_PLACEMENT_3D('Cone Axis2P3D',#743,#744,#745) ;
#757=AXIS2_PLACEMENT_3D('Circle Axis2P3D',#755,#756,$) ;
#776=AXIS2_PLACEMENT_3D('Circle Axis2P3D',#774,#775,$) ;
#789=AXIS2_PLACEMENT_3D('Cylinder Axis2P3D',#786,#787,#788) ;
#800=AXIS2_PLACEMENT_3D('Circle Axis2P3D',#798,#799,$) ;
#819=AXIS2_PLACEMENT_3D('Circle Axis2P3D',#817,#818,$) ;
#832=AXIS2_PLACEMENT_3D('Cone Axis2P3D',#829,#830,#831) ;
#843=AXIS2_PLACEMENT_3D('Circle Axis2P3D',#841,#842,$) ;
#862=AXIS2_PLACEMENT_3D('Circle Axis2P3D',#860,#861,$) ;
#875=AXIS2_PLACEMENT_3D('Cone Axis2P3D',#872,#873,#874) ;
#886=AXIS2_PLACEMENT_3D('Circle Axis2P3D',#884,#885,$) ;
#905=AXIS2_PLACEMENT_3D('Circle Axis2P3D',#903,#904,$) ;
#918=AXIS2_PLACEMENT_3D('Cylinder Axis2P3D',#915,#916,#917) ;
#922=AXIS2_PLACEMENT_3D('Circle Axis2P3D',#920,#921,$) ;
#938=AXIS2_PLACEMENT_3D('Circle Axis2P3D',#936,#937,$) ;
#957=AXIS2_PLACEMENT_3D('Circle Axis2P3D',#955,#956,$) ;
#962=AXIS2_PLACEMENT_3D('Circle Axis2P3D',#960,#961,$) ;
#975=AXIS2_PLACEMENT_3D('Plane Axis2P3D',#972,#973,#974) ;
#989=AXIS2_PLACEMENT_3D('Plane Axis2P3D',#986,#987,#988) ;
#1004=AXIS2_PLACEMENT_3D('Circle Axis2P3D',#1002,#1003,$) ;
#1020=AXIS2_PLACEMENT_3D('Circle Axis2P3D',#1018,#1019,$) ;
#1039=AXIS2_PLACEMENT_3D('Circle Axis2P3D',#1037,#1038,$) ;
#1044=AXIS2_PLACEMENT_3D('Circle Axis2P3D',#1042,#1043,$) ;
#1057=AXIS2_PLACEMENT_3D('Cone Axis2P3D',#1054,#1055,#1056) ;
#1061=AXIS2_PLACEMENT_3D('Circle Axis2P3D',#1059,#1060,$) ;
#1077=AXIS2_PLACEMENT_3D('Circle Axis2P3D',#1075,#1076,$) ;
#1096=AXIS2_PLACEMENT_3D('Circle Axis2P3D',#1094,#1095,$) ;
#1101=AXIS2_PLACEMENT_3D('Circle Axis2P3D',#1099,#1100,$) ;
#1114=AXIS2_PLACEMENT_3D('Cone Axis2P3D',#1111,#1112,#1113) ;
#1125=AXIS2_PLACEMENT_3D('Circle Axis2P3D',#1123,#1124,$) ;
#1144=AXIS2_PLACEMENT_3D('Circle Axis2P3D',#1142,#1143,$) ;
#1163=AXIS2_PLACEMENT_3D('Circle Axis2P3D',#1161,#1162,$) ;
#1182=AXIS2_PLACEMENT_3D('Circle Axis2P3D',#1180,#1181,$) ;
#1195=AXIS2_PLACEMENT_3D('Cone Axis2P3D',#1192,#1193,#1194) ;
#1206=AXIS2_PLACEMENT_3D('Circle Axis2P3D',#1204,#1205,$) ;
#1225=AXIS2_PLACEMENT_3D('Circle Axis2P3D',#1223,#1224,$) ;
#1238=AXIS2_PLACEMENT_3D('Cone Axis2P3D',#1235,#1236,#1237) ;
#1249=AXIS2_PLACEMENT_3D('Circle Axis2P3D',#1247,#1248,$) ;
#1268=AXIS2_PLACEMENT_3D('Circle Axis2P3D',#1266,#1267,$) ;
#1281=AXIS2_PLACEMENT_3D('Plane Axis2P3D',#1278,#1279,#1280) ;
#1295=AXIS2_PLACEMENT_3D('Plane Axis2P3D',#1292,#1293,#1294) ;
#40=PRODUCT_DEFINITION_SHAPE(' ',' ',#14) ;
#31=APPROVAL_PERSON_ORGANIZATION(#25,#21,#19) ;
#25=PERSON_AND_ORGANIZATION(#22,#23) ;
#22=PERSON(' ',' ',' ',$,$,$) ;
#23=ORGANIZATION(' ',' ',' ') ;
#21=APPROVAL(#20,' ') ;
#20=APPROVAL_STATUS('not_yet_approved') ;
#19=APPROVAL_ROLE('APPROVER') ;
#13=DATE_AND_TIME(#11,#12) ;
#12=LOCAL_TIME(16,25,7.,#10) ;
#10=COORDINATED_UNIVERSAL_TIME_OFFSET(0,0,.AHEAD.) ;
#86=ORIENTED_EDGE('',*,*,#65,.F.) ;
#87=ORIENTED_EDGE('',*,*,#72,.T.) ;
#88=ORIENTED_EDGE('',*,*,#79,.T.) ;
#89=ORIENTED_EDGE('',*,*,#84,.F.) ;
#103=ORIENTED_EDGE('',*,*,#96,.F.) ;
#104=ORIENTED_EDGE('',*,*,#84,.T.) ;
#105=ORIENTED_EDGE('',*,*,#101,.T.) ;
#106=ORIENTED_EDGE('',*,*,#72,.F.) ;
#134=ORIENTED_EDGE('',*,*,#79,.F.) ;
#135=ORIENTED_EDGE('',*,*,#120,.T.) ;
#136=ORIENTED_EDGE('',*,*,#127,.T.) ;
#137=ORIENTED_EDGE('',*,*,#132,.F.) ;
#146=ORIENTED_EDGE('',*,*,#101,.F.) ;
#147=ORIENTED_EDGE('',*,*,#132,.T.) ;
#148=ORIENTED_EDGE('',*,*,#144,.T.) ;
#149=ORIENTED_EDGE('',*,*,#120,.F.) ;
#172=ORIENTED_EDGE('',*,*,#127,.F.) ;
#173=ORIENTED_EDGE('',*,*,#158,.T.) ;
#174=ORIENTED_EDGE('',*,*,#165,.T.) ;
#175=ORIENTED_EDGE('',*,*,#170,.F.) ;
#184=ORIENTED_EDGE('',*,*,#144,.F.) ;
#185=ORIENTED_EDGE('',*,*,#170,.T.) ;
#186=ORIENTED_EDGE('',*,*,#182,.T.) ;
#187=ORIENTED_EDGE('',*,*,#158,.F.) ;
#210=ORIENTED_EDGE('',*,*,#203,.T.) ;
#211=ORIENTED_EDGE('',*,*,#208,.T.) ;
#214=ORIENTED_EDGE('',*,*,#165,.F.) ;
#215=ORIENTED_EDGE('',*,*,#182,.F.) ;
#243=ORIENTED_EDGE('',*,*,#229,.T.) ;
#244=ORIENTED_EDGE('',*,*,#236,.T.) ;
#245=ORIENTED_EDGE('',*,*,#241,.F.) ;
#246=ORIENTED_EDGE('',*,*,#203,.F.) ;
#260=ORIENTED_EDGE('',*,*,#241,.T.) ;
#261=ORIENTED_EDGE('',*,*,#258,.T.) ;
#262=ORIENTED_EDGE('',*,*,#229,.F.) ;
#263=ORIENTED_EDGE('',*,*,#208,.F.) ;
#286=ORIENTED_EDGE('',*,*,#279,.F.) ;
#287=ORIENTED_EDGE('',*,*,#284,.F.) ;
#290=ORIENTED_EDGE('',*,*,#96,.T.) ;
#291=ORIENTED_EDGE('',*,*,#65,.T.) ;
#319=ORIENTED_EDGE('',*,*,#305,.F.) ;
#320=ORIENTED_EDGE('',*,*,#258,.F.) ;
#321=ORIENTED_EDGE('',*,*,#312,.T.) ;
#322=ORIENTED_EDGE('',*,*,#317,.T.) ;
#331=ORIENTED_EDGE('',*,*,#312,.F.) ;
#332=ORIENTED_EDGE('',*,*,#236,.F.) ;
#333=ORIENTED_EDGE('',*,*,#305,.T.) ;
#334=ORIENTED_EDGE('',*,*,#329,.T.) ;
#353=ORIENTED_EDGE('',*,*,#346,.T.) ;
#354=ORIENTED_EDGE('',*,*,#284,.T.) ;
#355=ORIENTED_EDGE('',*,*,#351,.F.) ;
#356=ORIENTED_EDGE('',*,*,#329,.F.) ;
#365=ORIENTED_EDGE('',*,*,#351,.T.) ;
#366=ORIENTED_EDGE('',*,*,#279,.T.) ;
#367=ORIENTED_EDGE('',*,*,#346,.F.) ;
#368=ORIENTED_EDGE('',*,*,#317,.F.) ;
#409=ORIENTED_EDGE('',*,*,#388,.F.) ;
#410=ORIENTED_EDGE('',*,*,#395,.T.) ;
#411=ORIENTED_EDGE('',*,*,#402,.T.) ;
#412=ORIENTED_EDGE('',*,*,#407,.F.) ;
#426=ORIENTED_EDGE('',*,*,#419,.F.) ;
#427=ORIENTED_EDGE('',*,*,#407,.T.) ;
#428=ORIENTED_EDGE('',*,*,#424,.T.) ;
#429=ORIENTED_EDGE('',*,*,#395,.F.) ;
#457=ORIENTED_EDGE('',*,*,#402,.F.) ;
#458=ORIENTED_EDGE('',*,*,#443,.T.) ;
#459=ORIENTED_EDGE('',*,*,#450,.T.) ;
#460=ORIENTED_EDGE('',*,*,#455,.F.) ;
#469=ORIENTED_EDGE('',*,*,#424,.F.) ;
#470=ORIENTED_EDGE('',*,*,#455,.T.) ;
#471=ORIENTED_EDGE('',*,*,#467,.T.) ;
#472=ORIENTED_EDGE('',*,*,#443,.F.) ;
#495=ORIENTED_EDGE('',*,*,#450,.F.) ;
#496=ORIENTED_EDGE('',*,*,#481,.T.) ;
#497=ORIENTED_EDGE('',*,*,#488,.T.) ;
#498=ORIENTED_EDGE('',*,*,#493,.F.) ;
#507=ORIENTED_EDGE('',*,*,#467,.F.) ;
#508=ORIENTED_EDGE('',*,*,#493,.T.) ;
#509=ORIENTED_EDGE('',*,*,#505,.T.) ;
#510=ORIENTED_EDGE('',*,*,#481,.F.) ;
#514=ORIENTED_EDGE('',*,*,#419,.T.) ;
#515=ORIENTED_EDGE('',*,*,#388,.T.) ;
#532=ORIENTED_EDGE('',*,*,#525,.F.) ;
#533=ORIENTED_EDGE('',*,*,#530,.F.) ;
#561=ORIENTED_EDGE('',*,*,#547,.T.) ;
#562=ORIENTED_EDGE('',*,*,#530,.T.) ;
#563=ORIENTED_EDGE('',*,*,#554,.F.) ;
#564=ORIENTED_EDGE('',*,*,#559,.F.) ;
#578=ORIENTED_EDGE('',*,*,#554,.T.) ;
#579=ORIENTED_EDGE('',*,*,#525,.T.) ;
#580=ORIENTED_EDGE('',*,*,#547,.F.) ;
#581=ORIENTED_EDGE('',*,*,#576,.F.) ;
#585=ORIENTED_EDGE('',*,*,#488,.F.) ;
#586=ORIENTED_EDGE('',*,*,#505,.F.) ;
#603=ORIENTED_EDGE('',*,*,#596,.T.) ;
#604=ORIENTED_EDGE('',*,*,#601,.T.) ;
#632=ORIENTED_EDGE('',*,*,#620,.F.) ;
#633=ORIENTED_EDGE('',*,*,#625,.T.) ;
#634=ORIENTED_EDGE('',*,*,#576,.T.) ;
#635=ORIENTED_EDGE('',*,*,#630,.F.) ;
#644=ORIENTED_EDGE('',*,*,#642,.F.) ;
#645=ORIENTED_EDGE('',*,*,#630,.T.) ;
#646=ORIENTED_EDGE('',*,*,#559,.T.) ;
#647=ORIENTED_EDGE('',*,*,#625,.F.) ;
#666=ORIENTED_EDGE('',*,*,#659,.T.) ;
#667=ORIENTED_EDGE('',*,*,#620,.T.) ;
#668=ORIENTED_EDGE('',*,*,#664,.F.) ;
#669=ORIENTED_EDGE('',*,*,#596,.F.) ;
#678=ORIENTED_EDGE('',*,*,#664,.T.) ;
#679=ORIENTED_EDGE('',*,*,#642,.T.) ;
#680=ORIENTED_EDGE('',*,*,#659,.F.) ;
#681=ORIENTED_EDGE('',*,*,#601,.F.) ;
#720=ORIENTED_EDGE('',*,*,#699,.F.) ;
#721=ORIENTED_EDGE('',*,*,#706,.T.) ;
#722=ORIENTED_EDGE('',*,*,#713,.T.) ;
#723=ORIENTED_EDGE('',*,*,#718,.F.) ;
#737=ORIENTED_EDGE('',*,*,#730,.F.) ;
#738=ORIENTED_EDGE('',*,*,#718,.T.) ;
#739=ORIENTED_EDGE('',*,*,#735,.T.) ;
#740=ORIENTED_EDGE('',*,*,#706,.F.) ;
#768=ORIENTED_EDGE('',*,*,#713,.F.) ;
#769=ORIENTED_EDGE('',*,*,#754,.T.) ;
#770=ORIENTED_EDGE('',*,*,#761,.T.) ;
#771=ORIENTED_EDGE('',*,*,#766,.F.) ;
#780=ORIENTED_EDGE('',*,*,#735,.F.) ;
#781=ORIENTED_EDGE('',*,*,#766,.T.) ;
#782=ORIENTED_EDGE('',*,*,#778,.T.) ;
#783=ORIENTED_EDGE('',*,*,#754,.F.) ;
#811=ORIENTED_EDGE('',*,*,#761,.F.) ;
#812=ORIENTED_EDGE('',*,*,#797,.T.) ;
#813=ORIENTED_EDGE('',*,*,#804,.T.) ;
#814=ORIENTED_EDGE('',*,*,#809,.F.) ;
#823=ORIENTED_EDGE('',*,*,#778,.F.) ;
#824=ORIENTED_EDGE('',*,*,#809,.T.) ;
#825=ORIENTED_EDGE('',*,*,#821,.T.) ;
#826=ORIENTED_EDGE('',*,*,#797,.F.) ;
#854=ORIENTED_EDGE('',*,*,#804,.F.) ;
#855=ORIENTED_EDGE('',*,*,#840,.T.) ;
#856=ORIENTED_EDGE('',*,*,#847,.T.) ;
#857=ORIENTED_EDGE('',*,*,#852,.F.) ;
#866=ORIENTED_EDGE('',*,*,#821,.F.) ;
#867=ORIENTED_EDGE('',*,*,#852,.T.) ;
#868=ORIENTED_EDGE('',*,*,#864,.T.) ;
#869=ORIENTED_EDGE('',*,*,#840,.F.) ;
#897=ORIENTED_EDGE('',*,*,#847,.F.) ;
#898=ORIENTED_EDGE('',*,*,#883,.T.) ;
#899=ORIENTED_EDGE('',*,*,#890,.T.) ;
#900=ORIENTED_EDGE('',*,*,#895,.F.) ;
#909=ORIENTED_EDGE('',*,*,#864,.F.) ;
#910=ORIENTED_EDGE('',*,*,#895,.T.) ;
#911=ORIENTED_EDGE('',*,*,#907,.T.) ;
#912=ORIENTED_EDGE('',*,*,#883,.F.) ;
#949=ORIENTED_EDGE('',*,*,#928,.F.) ;
#950=ORIENTED_EDGE('',*,*,#935,.T.) ;
#951=ORIENTED_EDGE('',*,*,#942,.T.) ;
#952=ORIENTED_EDGE('',*,*,#947,.F.) ;
#966=ORIENTED_EDGE('',*,*,#959,.F.) ;
#967=ORIENTED_EDGE('',*,*,#947,.T.) ;
#968=ORIENTED_EDGE('',*,*,#964,.T.) ;
#969=ORIENTED_EDGE('',*,*,#935,.F.) ;
#978=ORIENTED_EDGE('',*,*,#890,.F.) ;
#979=ORIENTED_EDGE('',*,*,#907,.F.) ;
#982=ORIENTED_EDGE('',*,*,#959,.T.) ;
#983=ORIENTED_EDGE('',*,*,#928,.T.) ;
#992=ORIENTED_EDGE('',*,*,#730,.T.) ;
#993=ORIENTED_EDGE('',*,*,#699,.T.) ;
#996=ORIENTED_EDGE('',*,*,#942,.F.) ;
#997=ORIENTED_EDGE('',*,*,#964,.F.) ;
#1031=ORIENTED_EDGE('',*,*,#1010,.F.) ;
#1032=ORIENTED_EDGE('',*,*,#1017,.T.) ;
#1033=ORIENTED_EDGE('',*,*,#1024,.T.) ;
#1034=ORIENTED_EDGE('',*,*,#1029,.F.) ;
#1048=ORIENTED_EDGE('',*,*,#1041,.F.) ;
#1049=ORIENTED_EDGE('',*,*,#1029,.T.) ;
#1050=ORIENTED_EDGE('',*,*,#1046,.T.) ;
#1051=ORIENTED_EDGE('',*,*,#1017,.F.) ;
#1088=ORIENTED_EDGE('',*,*,#1067,.F.) ;
#1089=ORIENTED_EDGE('',*,*,#1074,.T.) ;
#1090=ORIENTED_EDGE('',*,*,#1081,.T.) ;
#1091=ORIENTED_EDGE('',*,*,#1086,.F.) ;
#1105=ORIENTED_EDGE('',*,*,#1098,.F.) ;
#1106=ORIENTED_EDGE('',*,*,#1086,.T.) ;
#1107=ORIENTED_EDGE('',*,*,#1103,.T.) ;
#1108=ORIENTED_EDGE('',*,*,#1074,.F.) ;
#1136=ORIENTED_EDGE('',*,*,#1081,.F.) ;
#1137=ORIENTED_EDGE('',*,*,#1122,.T.) ;
#1138=ORIENTED_EDGE('',*,*,#1129,.T.) ;
#1139=ORIENTED_EDGE('',*,*,#1134,.F.) ;
#1148=ORIENTED_EDGE('',*,*,#1103,.F.) ;
#1149=ORIENTED_EDGE('',*,*,#1134,.T.) ;
#1150=ORIENTED_EDGE('',*,*,#1146,.T.) ;
#1151=ORIENTED_EDGE('',*,*,#1122,.F.) ;
#1174=ORIENTED_EDGE('',*,*,#1129,.F.) ;
#1175=ORIENTED_EDGE('',*,*,#1160,.T.) ;
#1176=ORIENTED_EDGE('',*,*,#1167,.T.) ;
#1177=ORIENTED_EDGE('',*,*,#1172,.F.) ;
#1186=ORIENTED_EDGE('',*,*,#1146,.F.) ;
#1187=ORIENTED_EDGE('',*,*,#1172,.T.) ;
#1188=ORIENTED_EDGE('',*,*,#1184,.T.) ;
#1189=ORIENTED_EDGE('',*,*,#1160,.F.) ;
#1217=ORIENTED_EDGE('',*,*,#1167,.F.) ;
#1218=ORIENTED_EDGE('',*,*,#1203,.T.) ;
#1219=ORIENTED_EDGE('',*,*,#1210,.T.) ;
#1220=ORIENTED_EDGE('',*,*,#1215,.F.) ;
#1229=ORIENTED_EDGE('',*,*,#1184,.F.) ;
#1230=ORIENTED_EDGE('',*,*,#1215,.T.) ;
#1231=ORIENTED_EDGE('',*,*,#1227,.T.) ;
#1232=ORIENTED_EDGE('',*,*,#1203,.F.) ;
#1260=ORIENTED_EDGE('',*,*,#1210,.F.) ;
#1261=ORIENTED_EDGE('',*,*,#1246,.T.) ;
#1262=ORIENTED_EDGE('',*,*,#1253,.T.) ;
#1263=ORIENTED_EDGE('',*,*,#1258,.F.) ;
#1272=ORIENTED_EDGE('',*,*,#1227,.F.) ;
#1273=ORIENTED_EDGE('',*,*,#1258,.T.) ;
#1274=ORIENTED_EDGE('',*,*,#1270,.T.) ;
#1275=ORIENTED_EDGE('',*,*,#1246,.F.) ;
#1284=ORIENTED_EDGE('',*,*,#1253,.F.) ;
#1285=ORIENTED_EDGE('',*,*,#1270,.F.) ;
#1288=ORIENTED_EDGE('',*,*,#1041,.T.) ;
#1289=ORIENTED_EDGE('',*,*,#1010,.T.) ;
#1298=ORIENTED_EDGE('',*,*,#1098,.T.) ;
#1299=ORIENTED_EDGE('',*,*,#1067,.T.) ;
#1302=ORIENTED_EDGE('',*,*,#1024,.F.) ;
#1303=ORIENTED_EDGE('',*,*,#1046,.F.) ;
#216=FACE_BOUND('',#213,.T.) ;
#292=FACE_BOUND('',#289,.T.) ;
#534=FACE_BOUND('',#531,.T.) ;
#605=FACE_BOUND('',#602,.T.) ;
#984=FACE_BOUND('',#981,.T.) ;
#998=FACE_BOUND('',#995,.T.) ;
#1290=FACE_BOUND('',#1287,.T.) ;
#1304=FACE_BOUND('',#1301,.T.) ;
#51=CLOSED_SHELL('Closed Shell',(#91,#108,#139,#151,#177,#189,#217,#248,#265,#293,#324,#336,#358,#370)) ;
#374=CLOSED_SHELL('Closed Shell',(#414,#431,#462,#474,#500,#512,#535,#566,#583,#606,#637,#649,#671,#683)) ;
#685=CLOSED_SHELL('Closed Shell',(#725,#742,#773,#785,#816,#828,#859,#871,#902,#914,#954,#971,#985,#999)) ;
#1001=CLOSED_SHELL('Closed Shell',(#1036,#1053,#1093,#1110,#1141,#1153,#1179,#1191,#1222,#1234,#1265,#1277,#1291,#1305)) ;
#68=VECTOR('Line Direction',#67,1.) ;
#82=VECTOR('Line Direction',#81,1.) ;
#154=VECTOR('Line Direction',#153,1.) ;
#168=VECTOR('Line Direction',#167,1.) ;
#301=VECTOR('Line Direction',#300,1.) ;
#308=VECTOR('Line Direction',#307,1.) ;
#391=VECTOR('Line Direction',#390,1.) ;
#405=VECTOR('Line Direction',#404,1.) ;
#477=VECTOR('Line Direction',#476,1.) ;
#491=VECTOR('Line Direction',#490,1.) ;
#623=VECTOR('Line Direction',#622,1.) ;
#628=VECTOR('Line Direction',#627,1.) ;
#702=VECTOR('Line Direction',#701,1.) ;
#716=VECTOR('Line Direction',#715,1.) ;
#750=VECTOR('Line Direction',#749,1.) ;
#764=VECTOR('Line Direction',#763,1.) ;
#793=VECTOR('Line Direction',#792,1.) ;
#807=VECTOR('Line Direction',#806,1.) ;
#836=VECTOR('Line Direction',#835,1.) ;
#850=VECTOR('Line Direction',#849,1.) ;
#879=VECTOR('Line Direction',#878,1.) ;
#893=VECTOR('Line Direction',#892,1.) ;
#931=VECTOR('Line Direction',#930,1.) ;
#945=VECTOR('Line Direction',#944,1.) ;
#1013=VECTOR('Line Direction',#1012,1.) ;
#1027=VECTOR('Line Direction',#1026,1.) ;
#1070=VECTOR('Line Direction',#1069,1.) ;
#1084=VECTOR('Line Direction',#1083,1.) ;
#1118=VECTOR('Line Direction',#1117,1.) ;
#1132=VECTOR('Line Direction',#1131,1.) ;
#1156=VECTOR('Line Direction',#1155,1.) ;
#1170=VECTOR('Line Direction',#1169,1.) ;
#1199=VECTOR('Line Direction',#1198,1.) ;
#1213=VECTOR('Line Direction',#1212,1.) ;
#1242=VECTOR('Line Direction',#1241,1.) ;
#1256=VECTOR('Line Direction',#1255,1.) ;
#372=ADVANCED_BREP_SHAPE_REPRESENTATION('NONE',(#371,#684,#1000,#1306),#46) ;
#49=SHAPE_REPRESENTATION(' ',(#48),#46) ;
#91=ADVANCED_FACE('PartBody ( *SOL4 - wsp *MASTER -  -Non Smart-  )',(#90),#56,.F.) ;
#108=ADVANCED_FACE('PartBody ( *SOL4 - wsp *MASTER -  -Non Smart-  )',(#107),#56,.F.) ;
#139=ADVANCED_FACE('PartBody ( *SOL4 - wsp *MASTER -  -Non Smart-  )',(#138),#113,.F.) ;
#151=ADVANCED_FACE('PartBody ( *SOL4 - wsp *MASTER -  -Non Smart-  )',(#150),#113,.F.) ;
#177=ADVANCED_FACE('PartBody ( *SOL4 - wsp *MASTER -  -Non Smart-  )',(#176),#56,.F.) ;
#189=ADVANCED_FACE('PartBody ( *SOL4 - wsp *MASTER -  -Non Smart-  )',(#188),#56,.F.) ;
#217=ADVANCED_FACE('PartBody ( *SOL4 - wsp *MASTER -  -Non Smart-  )',(#212,#216),#194,.T.) ;
#248=ADVANCED_FACE('PartBody ( *SOL4 - wsp *MASTER -  -Non Smart-  )',(#247),#222,.T.) ;
#265=ADVANCED_FACE('PartBody ( *SOL4 - wsp *MASTER -  -Non Smart-  )',(#264),#253,.T.) ;
#293=ADVANCED_FACE('PartBody ( *SOL4 - wsp *MASTER -  -Non Smart-  )',(#288,#292),#270,.F.) ;
#324=ADVANCED_FACE('PartBody ( *SOL4 - wsp *MASTER -  -Non Smart-  )',(#323),#298,.T.) ;
#336=ADVANCED_FACE('PartBody ( *SOL4 - wsp *MASTER -  -Non Smart-  )',(#335),#298,.T.) ;
#358=ADVANCED_FACE('PartBody ( *SOL4 - wsp *MASTER -  -Non Smart-  )',(#357),#341,.T.) ;
#370=ADVANCED_FACE('PartBody ( *SOL4 - wsp *MASTER -  -Non Smart-  )',(#369),#363,.T.) ;
#414=ADVANCED_FACE('PartBody ( *SOL4 - wsp *MASTER -  -Non Smart-  )',(#413),#379,.T.) ;
#431=ADVANCED_FACE('PartBody ( *SOL4 - wsp *MASTER -  -Non Smart-  )',(#430),#379,.T.) ;
#462=ADVANCED_FACE('PartBody ( *SOL4 - wsp *MASTER -  -Non Smart-  )',(#461),#436,.F.) ;
#474=ADVANCED_FACE('PartBody ( *SOL4 - wsp *MASTER -  -Non Smart-  )',(#473),#436,.F.) ;
#500=ADVANCED_FACE('PartBody ( *SOL4 - wsp *MASTER -  -Non Smart-  )',(#499),#379,.T.) ;
#512=ADVANCED_FACE('PartBody ( *SOL4 - wsp *MASTER -  -Non Smart-  )',(#511),#379,.T.) ;
#535=ADVANCED_FACE('PartBody ( *SOL4 - wsp *MASTER -  -Non Smart-  )',(#516,#534),#194,.T.) ;
#566=ADVANCED_FACE('PartBody ( *SOL4 - wsp *MASTER -  -Non Smart-  )',(#565),#540,.T.) ;
#583=ADVANCED_FACE('PartBody ( *SOL4 - wsp *MASTER -  -Non Smart-  )',(#582),#571,.T.) ;
#606=ADVANCED_FACE('PartBody ( *SOL4 - wsp *MASTER -  -Non Smart-  )',(#587,#605),#270,.F.) ;
#637=ADVANCED_FACE('PartBody ( *SOL4 - wsp *MASTER -  -Non Smart-  )',(#636),#611,.F.) ;
#649=ADVANCED_FACE('PartBody ( *SOL4 - wsp *MASTER -  -Non Smart-  )',(#648),#611,.F.) ;
#671=ADVANCED_FACE('PartBody ( *SOL4 - wsp *MASTER -  -Non Smart-  )',(#670),#654,.T.) ;
#683=ADVANCED_FACE('PartBody ( *SOL4 - wsp *MASTER -  -Non Smart-  )',(#682),#676,.T.) ;
#725=ADVANCED_FACE('PartBody ( *SOL4 - wsp *MASTER -  -Non Smart-  )',(#724),#690,.T.) ;
#742=ADVANCED_FACE('PartBody ( *SOL4 - wsp *MASTER -  -Non Smart-  )',(#741),#690,.T.) ;
#773=ADVANCED_FACE('PartBody ( *SOL4 - wsp *MASTER -  -Non Smart-  )',(#772),#747,.F.) ;
#785=ADVANCED_FACE('PartBody ( *SOL4 - wsp *MASTER -  -Non Smart-  )',(#784),#747,.F.) ;
#816=ADVANCED_FACE('PartBody ( *SOL4 - wsp *MASTER -  -Non Smart-  )',(#815),#790,.T.) ;
#828=ADVANCED_FACE('PartBody ( *SOL4 - wsp *MASTER -  -Non Smart-  )',(#827),#790,.T.) ;
#859=ADVANCED_FACE('PartBody ( *SOL4 - wsp *MASTER -  -Non Smart-  )',(#858),#833,.T.) ;
#871=ADVANCED_FACE('PartBody ( *SOL4 - wsp *MASTER -  -Non Smart-  )',(#870),#833,.T.) ;
#902=ADVANCED_FACE('PartBody ( *SOL4 - wsp *MASTER -  -Non Smart-  )',(#901),#876,.F.) ;
#914=ADVANCED_FACE('PartBody ( *SOL4 - wsp *MASTER -  -Non Smart-  )',(#913),#876,.F.) ;
#954=ADVANCED_FACE('PartBody ( *SOL4 - wsp *MASTER -  -Non Smart-  )',(#953),#919,.F.) ;
#971=ADVANCED_FACE('PartBody ( *SOL4 - wsp *MASTER -  -Non Smart-  )',(#970),#919,.F.) ;
#985=ADVANCED_FACE('PartBody ( *SOL4 - wsp *MASTER -  -Non Smart-  )',(#980,#984),#976,.F.) ;
#999=ADVANCED_FACE('PartBody ( *SOL4 - wsp *MASTER -  -Non Smart-  )',(#994,#998),#990,.T.) ;
#1036=ADVANCED_FACE('PartBody ( *SOL4 - wsp *MASTER -  -Non Smart-  )',(#1035),#919,.F.) ;
#1053=ADVANCED_FACE('PartBody ( *SOL4 - wsp *MASTER -  -Non Smart-  )',(#1052),#919,.F.) ;
#1093=ADVANCED_FACE('PartBody ( *SOL4 - wsp *MASTER -  -Non Smart-  )',(#1092),#1058,.F.) ;
#1110=ADVANCED_FACE('PartBody ( *SOL4 - wsp *MASTER -  -Non Smart-  )',(#1109),#1058,.F.) ;
#1141=ADVANCED_FACE('PartBody ( *SOL4 - wsp *MASTER -  -Non Smart-  )',(#1140),#1115,.T.) ;
#1153=ADVANCED_FACE('PartBody ( *SOL4 - wsp *MASTER -  -Non Smart-  )',(#1152),#1115,.T.) ;
#1179=ADVANCED_FACE('PartBody ( *SOL4 - wsp *MASTER -  -Non Smart-  )',(#1178),#790,.T.) ;
#1191=ADVANCED_FACE('PartBody ( *SOL4 - wsp *MASTER -  -Non Smart-  )',(#1190),#790,.T.) ;
#1222=ADVANCED_FACE('PartBody ( *SOL4 - wsp *MASTER -  -Non Smart-  )',(#1221),#1196,.F.) ;
#1234=ADVANCED_FACE('PartBody ( *SOL4 - wsp *MASTER -  -Non Smart-  )',(#1233),#1196,.F.) ;
#1265=ADVANCED_FACE('PartBody ( *SOL4 - wsp *MASTER -  -Non Smart-  )',(#1264),#1239,.T.) ;
#1277=ADVANCED_FACE('PartBody ( *SOL4 - wsp *MASTER -  -Non Smart-  )',(#1276),#1239,.T.) ;
#1291=ADVANCED_FACE('PartBody ( *SOL4 - wsp *MASTER -  -Non Smart-  )',(#1286,#1290),#1282,.F.) ;
#1305=ADVANCED_FACE('PartBody ( *SOL4 - wsp *MASTER -  -Non Smart-  )',(#1300,#1304),#1296,.T.) ;
#4=APPLICATION_PROTOCOL_DEFINITION('international standard','config_control_design',1994,#1) ;
#32=APPROVAL_DATE_TIME(#13,#21) ;
#371=MANIFOLD_SOLID_BREP('PartBody ( *SOL4 - wsp *MASTER -  -Non Smart-  ).1',#51) ;
#684=MANIFOLD_SOLID_BREP('PartBody ( *SOL4 - wsp *MASTER -  -Non Smart-  ).2',#374) ;
#1000=MANIFOLD_SOLID_BREP('PartBody ( *SOL4 - wsp *MASTER -  -Non Smart-  ).3',#685) ;
#1306=MANIFOLD_SOLID_BREP('PartBody ( *SOL4 - wsp *MASTER -  -Non Smart-  ).4',#1001) ;
#11=CALENDAR_DATE(2021,6,1) ;
#30=CC_DESIGN_APPROVAL(#21,(#16,#6,#14)) ;
#18=CC_DESIGN_DATE_AND_TIME_ASSIGNMENT(#13,#17,(#16)) ;
#29=CC_DESIGN_DATE_AND_TIME_ASSIGNMENT(#13,#28,(#14)) ;
#17=DATE_TIME_ROLE('classification_date') ;
#28=DATE_TIME_ROLE('creation_date') ;
#27=CC_DESIGN_PERSON_AND_ORGANIZATION_ASSIGNMENT(#25,#26,(#16)) ;
#33=CC_DESIGN_PERSON_AND_ORGANIZATION_ASSIGNMENT(#25,#34,(#6)) ;
#35=CC_DESIGN_PERSON_AND_ORGANIZATION_ASSIGNMENT(#25,#36,(#6,#14)) ;
#37=CC_DESIGN_PERSON_AND_ORGANIZATION_ASSIGNMENT(#25,#38,(#5)) ;
#26=PERSON_AND_ORGANIZATION_ROLE('classification_officer') ;
#34=PERSON_AND_ORGANIZATION_ROLE('design_supplier') ;
#36=PERSON_AND_ORGANIZATION_ROLE('creator') ;
#38=PERSON_AND_ORGANIZATION_ROLE('design_owner') ;
#39=CC_DESIGN_SECURITY_CLASSIFICATION(#16,(#6)) ;
#60=CIRCLE('generated circle',#59,5.) ;
#76=CIRCLE('generated circle',#75,5.) ;
#95=CIRCLE('generated circle',#94,5.) ;
#100=CIRCLE('generated circle',#99,5.) ;
#117=CIRCLE('generated circle',#116,1.35) ;
#124=CIRCLE('generated circle',#123,5.) ;
#131=CIRCLE('generated circle',#130,1.35) ;
#143=CIRCLE('generated circle',#142,5.) ;
#162=CIRCLE('generated circle',#161,5.) ;
#181=CIRCLE('generated circle',#180,5.) ;
#198=CIRCLE('generated circle',#197,5.8) ;
#207=CIRCLE('generated circle',#206,5.8) ;
#226=CIRCLE('generated circle',#225,0.2) ;
#233=CIRCLE('generated circle',#232,6.) ;
#240=CIRCLE('generated circle',#239,0.2) ;
#257=CIRCLE('generated circle',#256,6.) ;
#274=CIRCLE('generated circle',#273,5.8) ;
#283=CIRCLE('generated circle',#282,5.8) ;
#316=CIRCLE('generated circle',#315,6.) ;
#328=CIRCLE('generated circle',#327,6.) ;
#345=CIRCLE('generated circle',#344,0.2) ;
#350=CIRCLE('generated circle',#349,0.2) ;
#383=CIRCLE('generated circle',#382,3.) ;
#399=CIRCLE('generated circle',#398,3.) ;
#418=CIRCLE('generated circle',#417,3.) ;
#423=CIRCLE('generated circle',#422,3.) ;
#440=CIRCLE('generated circle',#439,1.35) ;
#447=CIRCLE('generated circle',#446,3.) ;
#454=CIRCLE('generated circle',#453,1.35) ;
#466=CIRCLE('generated circle',#465,3.) ;
#485=CIRCLE('generated circle',#484,3.) ;
#504=CIRCLE('generated circle',#503,3.) ;
#520=CIRCLE('generated circle',#519,2.2) ;
#529=CIRCLE('generated circle',#528,2.2) ;
#544=CIRCLE('generated circle',#543,0.2) ;
#551=CIRCLE('generated circle',#550,0.2) ;
#558=CIRCLE('generated circle',#557,2.) ;
#575=CIRCLE('generated circle',#574,2.) ;
#591=CIRCLE('generated circle',#590,2.2) ;
#600=CIRCLE('generated circle',#599,2.2) ;
#615=CIRCLE('generated circle',#614,2.) ;
#641=CIRCLE('generated circle',#640,2.) ;
#658=CIRCLE('generated circle',#657,0.2) ;
#663=CIRCLE('generated circle',#662,0.2) ;
#694=CIRCLE('generated circle',#693,4.64603932708) ;
#710=CIRCLE('generated circle',#709,4.85) ;
#729=CIRCLE('generated circle',#728,4.64603932708) ;
#734=CIRCLE('generated circle',#733,4.85) ;
#758=CIRCLE('generated circle',#757,4.95) ;
#777=CIRCLE('generated circle',#776,4.95) ;
#801=CIRCLE('generated circle',#800,4.95) ;
#820=CIRCLE('generated circle',#819,4.95) ;
#844=CIRCLE('generated circle',#843,4.87455756079) ;
#863=CIRCLE('generated circle',#862,4.87455756079) ;
#887=CIRCLE('generated circle',#886,4.6145094482) ;
#906=CIRCLE('generated circle',#905,4.6145094482) ;
#923=CIRCLE('generated circle',#922,3.02) ;
#939=CIRCLE('generated circle',#938,3.02) ;
#958=CIRCLE('generated circle',#957,3.02) ;
#963=CIRCLE('generated circle',#962,3.02) ;
#1005=CIRCLE('generated circle',#1004,3.02) ;
#1021=CIRCLE('generated circle',#1020,3.02) ;
#1040=CIRCLE('generated circle',#1039,3.02) ;
#1045=CIRCLE('generated circle',#1044,3.02) ;
#1062=CIRCLE('generated circle',#1061,4.6145094482) ;
#1078=CIRCLE('generated circle',#1077,4.87455756079) ;
#1097=CIRCLE('generated circle',#1096,4.6145094482) ;
#1102=CIRCLE('generated circle',#1101,4.87455756079) ;
#1126=CIRCLE('generated circle',#1125,4.95) ;
#1145=CIRCLE('generated circle',#1144,4.95) ;
#1164=CIRCLE('generated circle',#1163,4.95) ;
#1183=CIRCLE('generated circle',#1182,4.95) ;
#1207=CIRCLE('generated circle',#1206,4.85) ;
#1226=CIRCLE('generated circle',#1225,4.85) ;
#1250=CIRCLE('generated circle',#1249,4.64603932708) ;
#1269=CIRCLE('generated circle',#1268,4.64603932708) ;
#690=CONICAL_SURFACE('Cone',#689,4.64603932708,0.959931088597) ;
#747=CONICAL_SURFACE('Cone',#746,4.85,0.610865238198) ;
#833=CONICAL_SURFACE('Cone',#832,4.87455756079,0.610865238198) ;
#876=CONICAL_SURFACE('Cone',#875,4.6145094482,0.959931088597) ;
#1058=CONICAL_SURFACE('Cone',#1057,4.6145094482,0.959931088597) ;
#1115=CONICAL_SURFACE('Cone',#1114,4.87455756079,0.610865238198) ;
#1196=CONICAL_SURFACE('Cone',#1195,4.85,0.610865238198) ;
#1239=CONICAL_SURFACE('Cone',#1238,4.64603932708,0.959931088597) ;
#373=SHAPE_REPRESENTATION_RELATIONSHIP(' ',' ',#49,#372) ;
#56=CYLINDRICAL_SURFACE('generated cylinder',#55,5.) ;
#298=CYLINDRICAL_SURFACE('generated cylinder',#297,6.) ;
#379=CYLINDRICAL_SURFACE('generated cylinder',#378,3.) ;
#611=CYLINDRICAL_SURFACE('generated cylinder',#610,2.) ;
#790=CYLINDRICAL_SURFACE('generated cylinder',#789,4.95) ;
#919=CYLINDRICAL_SURFACE('generated cylinder',#918,3.02) ;
#113=TOROIDAL_SURFACE('homeo Torus',#112,4.,1.35) ;
#222=TOROIDAL_SURFACE('homeo Torus',#221,5.8,0.2) ;
#253=TOROIDAL_SURFACE('homeo Torus',#252,5.8,0.2) ;
#341=TOROIDAL_SURFACE('homeo Torus',#340,5.8,0.2) ;
#363=TOROIDAL_SURFACE('homeo Torus',#362,5.8,0.2) ;
#436=TOROIDAL_SURFACE('homeo Torus',#435,4.,1.35) ;
#540=TOROIDAL_SURFACE('homeo Torus',#539,2.2,0.2) ;
#571=TOROIDAL_SURFACE('homeo Torus',#570,2.2,0.2) ;
#654=TOROIDAL_SURFACE('homeo Torus',#653,2.2,0.2) ;
#676=TOROIDAL_SURFACE('homeo Torus',#675,2.2,0.2) ;
#3=DESIGN_CONTEXT(' ',#1,'design') ;
#65=EDGE_CURVE('',#62,#64,#60,.T.) ;
#72=EDGE_CURVE('',#62,#71,#69,.T.) ;
#79=EDGE_CURVE('',#71,#78,#76,.T.) ;
#84=EDGE_CURVE('',#64,#78,#83,.T.) ;
#96=EDGE_CURVE('',#64,#62,#95,.T.) ;
#101=EDGE_CURVE('',#78,#71,#100,.T.) ;
#120=EDGE_CURVE('',#71,#119,#117,.T.) ;
#127=EDGE_CURVE('',#119,#126,#124,.T.) ;
#132=EDGE_CURVE('',#78,#126,#131,.T.) ;
#144=EDGE_CURVE('',#126,#119,#143,.T.) ;
#158=EDGE_CURVE('',#119,#157,#155,.T.) ;
#165=EDGE_CURVE('',#157,#164,#162,.T.) ;
#170=EDGE_CURVE('',#126,#164,#169,.T.) ;
#182=EDGE_CURVE('',#164,#157,#181,.T.) ;
#203=EDGE_CURVE('',#200,#202,#198,.T.) ;
#208=EDGE_CURVE('',#202,#200,#207,.T.) ;
#229=EDGE_CURVE('',#200,#228,#226,.F.) ;
#236=EDGE_CURVE('',#228,#235,#233,.T.) ;
#241=EDGE_CURVE('',#202,#235,#240,.F.) ;
#258=EDGE_CURVE('',#235,#228,#257,.T.) ;
#279=EDGE_CURVE('',#276,#278,#274,.T.) ;
#284=EDGE_CURVE('',#278,#276,#283,.T.) ;
#305=EDGE_CURVE('',#228,#304,#302,.F.) ;
#312=EDGE_CURVE('',#235,#311,#309,.F.) ;
#317=EDGE_CURVE('',#311,#304,#316,.T.) ;
#329=EDGE_CURVE('',#304,#311,#328,.T.) ;
#346=EDGE_CURVE('',#304,#278,#345,.F.) ;
#351=EDGE_CURVE('',#311,#276,#350,.F.) ;
#388=EDGE_CURVE('',#385,#387,#383,.T.) ;
#395=EDGE_CURVE('',#385,#394,#392,.F.) ;
#402=EDGE_CURVE('',#394,#401,#399,.T.) ;
#407=EDGE_CURVE('',#387,#401,#406,.F.) ;
#419=EDGE_CURVE('',#387,#385,#418,.T.) ;
#424=EDGE_CURVE('',#401,#394,#423,.T.) ;
#443=EDGE_CURVE('',#394,#442,#440,.T.) ;
#450=EDGE_CURVE('',#442,#449,#447,.T.) ;
#455=EDGE_CURVE('',#401,#449,#454,.T.) ;
#467=EDGE_CURVE('',#449,#442,#466,.T.) ;
#481=EDGE_CURVE('',#442,#480,#478,.F.) ;
#488=EDGE_CURVE('',#480,#487,#485,.T.) ;
#493=EDGE_CURVE('',#449,#487,#492,.F.) ;
#505=EDGE_CURVE('',#487,#480,#504,.T.) ;
#525=EDGE_CURVE('',#522,#524,#520,.T.) ;
#530=EDGE_CURVE('',#524,#522,#529,.T.) ;
#547=EDGE_CURVE('',#546,#524,#544,.F.) ;
#554=EDGE_CURVE('',#553,#522,#551,.F.) ;
#559=EDGE_CURVE('',#546,#553,#558,.T.) ;
#576=EDGE_CURVE('',#553,#546,#575,.T.) ;
#596=EDGE_CURVE('',#593,#595,#591,.T.) ;
#601=EDGE_CURVE('',#595,#593,#600,.T.) ;
#620=EDGE_CURVE('',#617,#619,#615,.T.) ;
#625=EDGE_CURVE('',#617,#553,#624,.T.) ;
#630=EDGE_CURVE('',#619,#546,#629,.T.) ;
#642=EDGE_CURVE('',#619,#617,#641,.T.) ;
#659=EDGE_CURVE('',#593,#617,#658,.F.) ;
#664=EDGE_CURVE('',#595,#619,#663,.F.) ;
#699=EDGE_CURVE('',#696,#698,#694,.F.) ;
#706=EDGE_CURVE('',#696,#705,#703,.T.) ;
#713=EDGE_CURVE('',#705,#712,#710,.F.) ;
#718=EDGE_CURVE('',#698,#712,#717,.T.) ;
#730=EDGE_CURVE('',#698,#696,#729,.F.) ;
#735=EDGE_CURVE('',#712,#705,#734,.F.) ;
#754=EDGE_CURVE('',#705,#753,#751,.T.) ;
#761=EDGE_CURVE('',#753,#760,#758,.T.) ;
#766=EDGE_CURVE('',#712,#760,#765,.T.) ;
#778=EDGE_CURVE('',#760,#753,#777,.T.) ;
#797=EDGE_CURVE('',#753,#796,#794,.F.) ;
#804=EDGE_CURVE('',#796,#803,#801,.T.) ;
#809=EDGE_CURVE('',#760,#803,#808,.F.) ;
#821=EDGE_CURVE('',#803,#796,#820,.T.) ;
#840=EDGE_CURVE('',#796,#839,#837,.F.) ;
#847=EDGE_CURVE('',#839,#846,#844,.T.) ;
#852=EDGE_CURVE('',#803,#846,#851,.F.) ;
#864=EDGE_CURVE('',#846,#839,#863,.T.) ;
#883=EDGE_CURVE('',#839,#882,#880,.F.) ;
#890=EDGE_CURVE('',#882,#889,#887,.F.) ;
#895=EDGE_CURVE('',#846,#889,#894,.F.) ;
#907=EDGE_CURVE('',#889,#882,#906,.F.) ;
#928=EDGE_CURVE('',#925,#927,#923,.T.) ;
#935=EDGE_CURVE('',#925,#934,#932,.T.) ;
#942=EDGE_CURVE('',#934,#941,#939,.T.) ;
#947=EDGE_CURVE('',#927,#941,#946,.T.) ;
#959=EDGE_CURVE('',#927,#925,#958,.T.) ;
#964=EDGE_CURVE('',#941,#934,#963,.T.) ;
#1010=EDGE_CURVE('',#1007,#1009,#1005,.T.) ;
#1017=EDGE_CURVE('',#1007,#1016,#1014,.T.) ;
#1024=EDGE_CURVE('',#1016,#1023,#1021,.T.) ;
#1029=EDGE_CURVE('',#1009,#1023,#1028,.T.) ;
#1041=EDGE_CURVE('',#1009,#1007,#1040,.T.) ;
#1046=EDGE_CURVE('',#1023,#1016,#1045,.T.) ;
#1067=EDGE_CURVE('',#1064,#1066,#1062,.T.) ;
#1074=EDGE_CURVE('',#1064,#1073,#1071,.T.) ;
#1081=EDGE_CURVE('',#1073,#1080,#1078,.T.) ;
#1086=EDGE_CURVE('',#1066,#1080,#1085,.T.) ;
#1098=EDGE_CURVE('',#1066,#1064,#1097,.T.) ;
#1103=EDGE_CURVE('',#1080,#1073,#1102,.T.) ;
#1122=EDGE_CURVE('',#1073,#1121,#1119,.T.) ;
#1129=EDGE_CURVE('',#1121,#1128,#1126,.F.) ;
#1134=EDGE_CURVE('',#1080,#1128,#1133,.T.) ;
#1146=EDGE_CURVE('',#1128,#1121,#1145,.F.) ;
#1160=EDGE_CURVE('',#1121,#1159,#1157,.F.) ;
#1167=EDGE_CURVE('',#1159,#1166,#1164,.T.) ;
#1172=EDGE_CURVE('',#1128,#1166,#1171,.F.) ;
#1184=EDGE_CURVE('',#1166,#1159,#1183,.T.) ;
#1203=EDGE_CURVE('',#1159,#1202,#1200,.F.) ;
#1210=EDGE_CURVE('',#1202,#1209,#1207,.F.) ;
#1215=EDGE_CURVE('',#1166,#1209,#1214,.F.) ;
#1227=EDGE_CURVE('',#1209,#1202,#1226,.F.) ;
#1246=EDGE_CURVE('',#1202,#1245,#1243,.F.) ;
#1253=EDGE_CURVE('',#1245,#1252,#1250,.T.) ;
#1258=EDGE_CURVE('',#1209,#1252,#1257,.F.) ;
#1270=EDGE_CURVE('',#1252,#1245,#1269,.T.) ;
#85=EDGE_LOOP('',(#86,#87,#88,#89)) ;
#102=EDGE_LOOP('',(#103,#104,#105,#106)) ;
#133=EDGE_LOOP('',(#134,#135,#136,#137)) ;
#145=EDGE_LOOP('',(#146,#147,#148,#149)) ;
#171=EDGE_LOOP('',(#172,#173,#174,#175)) ;
#183=EDGE_LOOP('',(#184,#185,#186,#187)) ;
#209=EDGE_LOOP('',(#210,#211)) ;
#213=EDGE_LOOP('',(#214,#215)) ;
#242=EDGE_LOOP('',(#243,#244,#245,#246)) ;
#259=EDGE_LOOP('',(#260,#261,#262,#263)) ;
#285=EDGE_LOOP('',(#286,#287)) ;
#289=EDGE_LOOP('',(#290,#291)) ;
#318=EDGE_LOOP('',(#319,#320,#321,#322)) ;
#330=EDGE_LOOP('',(#331,#332,#333,#334)) ;
#352=EDGE_LOOP('',(#353,#354,#355,#356)) ;
#364=EDGE_LOOP('',(#365,#366,#367,#368)) ;
#408=EDGE_LOOP('',(#409,#410,#411,#412)) ;
#425=EDGE_LOOP('',(#426,#427,#428,#429)) ;
#456=EDGE_LOOP('',(#457,#458,#459,#460)) ;
#468=EDGE_LOOP('',(#469,#470,#471,#472)) ;
#494=EDGE_LOOP('',(#495,#496,#497,#498)) ;
#506=EDGE_LOOP('',(#507,#508,#509,#510)) ;
#513=EDGE_LOOP('',(#514,#515)) ;
#531=EDGE_LOOP('',(#532,#533)) ;
#560=EDGE_LOOP('',(#561,#562,#563,#564)) ;
#577=EDGE_LOOP('',(#578,#579,#580,#581)) ;
#584=EDGE_LOOP('',(#585,#586)) ;
#602=EDGE_LOOP('',(#603,#604)) ;
#631=EDGE_LOOP('',(#632,#633,#634,#635)) ;
#643=EDGE_LOOP('',(#644,#645,#646,#647)) ;
#665=EDGE_LOOP('',(#666,#667,#668,#669)) ;
#677=EDGE_LOOP('',(#678,#679,#680,#681)) ;
#719=EDGE_LOOP('',(#720,#721,#722,#723)) ;
#736=EDGE_LOOP('',(#737,#738,#739,#740)) ;
#767=EDGE_LOOP('',(#768,#769,#770,#771)) ;
#779=EDGE_LOOP('',(#780,#781,#782,#783)) ;
#810=EDGE_LOOP('',(#811,#812,#813,#814)) ;
#822=EDGE_LOOP('',(#823,#824,#825,#826)) ;
#853=EDGE_LOOP('',(#854,#855,#856,#857)) ;
#865=EDGE_LOOP('',(#866,#867,#868,#869)) ;
#896=EDGE_LOOP('',(#897,#898,#899,#900)) ;
#908=EDGE_LOOP('',(#909,#910,#911,#912)) ;
#948=EDGE_LOOP('',(#949,#950,#951,#952)) ;
#965=EDGE_LOOP('',(#966,#967,#968,#969)) ;
#977=EDGE_LOOP('',(#978,#979)) ;
#981=EDGE_LOOP('',(#982,#983)) ;
#991=EDGE_LOOP('',(#992,#993)) ;
#995=EDGE_LOOP('',(#996,#997)) ;
#1030=EDGE_LOOP('',(#1031,#1032,#1033,#1034)) ;
#1047=EDGE_LOOP('',(#1048,#1049,#1050,#1051)) ;
#1087=EDGE_LOOP('',(#1088,#1089,#1090,#1091)) ;
#1104=EDGE_LOOP('',(#1105,#1106,#1107,#1108)) ;
#1135=EDGE_LOOP('',(#1136,#1137,#1138,#1139)) ;
#1147=EDGE_LOOP('',(#1148,#1149,#1150,#1151)) ;
#1173=EDGE_LOOP('',(#1174,#1175,#1176,#1177)) ;
#1185=EDGE_LOOP('',(#1186,#1187,#1188,#1189)) ;
#1216=EDGE_LOOP('',(#1217,#1218,#1219,#1220)) ;
#1228=EDGE_LOOP('',(#1229,#1230,#1231,#1232)) ;
#1259=EDGE_LOOP('',(#1260,#1261,#1262,#1263)) ;
#1271=EDGE_LOOP('',(#1272,#1273,#1274,#1275)) ;
#1283=EDGE_LOOP('',(#1284,#1285)) ;
#1287=EDGE_LOOP('',(#1288,#1289)) ;
#1297=EDGE_LOOP('',(#1298,#1299)) ;
#1301=EDGE_LOOP('',(#1302,#1303)) ;
#90=FACE_OUTER_BOUND('',#85,.T.) ;
#107=FACE_OUTER_BOUND('',#102,.T.) ;
#138=FACE_OUTER_BOUND('',#133,.T.) ;
#150=FACE_OUTER_BOUND('',#145,.T.) ;
#176=FACE_OUTER_BOUND('',#171,.T.) ;
#188=FACE_OUTER_BOUND('',#183,.T.) ;
#212=FACE_OUTER_BOUND('',#209,.T.) ;
#247=FACE_OUTER_BOUND('',#242,.T.) ;
#264=FACE_OUTER_BOUND('',#259,.T.) ;
#288=FACE_OUTER_BOUND('',#285,.T.) ;
#323=FACE_OUTER_BOUND('',#318,.T.) ;
#335=FACE_OUTER_BOUND('',#330,.T.) ;
#357=FACE_OUTER_BOUND('',#352,.T.) ;
#369=FACE_OUTER_BOUND('',#364,.T.) ;
#413=FACE_OUTER_BOUND('',#408,.T.) ;
#430=FACE_OUTER_BOUND('',#425,.T.) ;
#461=FACE_OUTER_BOUND('',#456,.T.) ;
#473=FACE_OUTER_BOUND('',#468,.T.) ;
#499=FACE_OUTER_BOUND('',#494,.T.) ;
#511=FACE_OUTER_BOUND('',#506,.T.) ;
#516=FACE_OUTER_BOUND('',#513,.T.) ;
#565=FACE_OUTER_BOUND('',#560,.T.) ;
#582=FACE_OUTER_BOUND('',#577,.T.) ;
#587=FACE_OUTER_BOUND('',#584,.T.) ;
#636=FACE_OUTER_BOUND('',#631,.T.) ;
#648=FACE_OUTER_BOUND('',#643,.T.) ;
#670=FACE_OUTER_BOUND('',#665,.T.) ;
#682=FACE_OUTER_BOUND('',#677,.T.) ;
#724=FACE_OUTER_BOUND('',#719,.T.) ;
#741=FACE_OUTER_BOUND('',#736,.T.) ;
#772=FACE_OUTER_BOUND('',#767,.T.) ;
#784=FACE_OUTER_BOUND('',#779,.T.) ;
#815=FACE_OUTER_BOUND('',#810,.T.) ;
#827=FACE_OUTER_BOUND('',#822,.T.) ;
#858=FACE_OUTER_BOUND('',#853,.T.) ;
#870=FACE_OUTER_BOUND('',#865,.T.) ;
#901=FACE_OUTER_BOUND('',#896,.T.) ;
#913=FACE_OUTER_BOUND('',#908,.T.) ;
#953=FACE_OUTER_BOUND('',#948,.T.) ;
#970=FACE_OUTER_BOUND('',#965,.T.) ;
#980=FACE_OUTER_BOUND('',#977,.T.) ;
#994=FACE_OUTER_BOUND('',#991,.T.) ;
#1035=FACE_OUTER_BOUND('',#1030,.T.) ;
#1052=FACE_OUTER_BOUND('',#1047,.T.) ;
#1092=FACE_OUTER_BOUND('',#1087,.T.) ;
#1109=FACE_OUTER_BOUND('',#1104,.T.) ;
#1140=FACE_OUTER_BOUND('',#1135,.T.) ;
#1152=FACE_OUTER_BOUND('',#1147,.T.) ;
#1178=FACE_OUTER_BOUND('',#1173,.T.) ;
#1190=FACE_OUTER_BOUND('',#1185,.T.) ;
#1221=FACE_OUTER_BOUND('',#1216,.T.) ;
#1233=FACE_OUTER_BOUND('',#1228,.T.) ;
#1264=FACE_OUTER_BOUND('',#1259,.T.) ;
#1276=FACE_OUTER_BOUND('',#1271,.T.) ;
#1286=FACE_OUTER_BOUND('',#1283,.T.) ;
#1300=FACE_OUTER_BOUND('',#1297,.T.) ;
#45=UNCERTAINTY_MEASURE_WITH_UNIT(LENGTH_MEASURE(0.005),#41,'distance_accuracy_value','CONFUSED CURVE UNCERTAINTY') ;
#69=LINE('Line',#66,#68) ;
#83=LINE('Line',#80,#82) ;
#155=LINE('Line',#152,#154) ;
#169=LINE('Line',#166,#168) ;
#302=LINE('Line',#299,#301) ;
#309=LINE('Line',#306,#308) ;
#392=LINE('Line',#389,#391) ;
#406=LINE('Line',#403,#405) ;
#478=LINE('Line',#475,#477) ;
#492=LINE('Line',#489,#491) ;
#624=LINE('Line',#621,#623) ;
#629=LINE('Line',#626,#628) ;
#703=LINE('Line',#700,#702) ;
#717=LINE('Line',#714,#716) ;
#751=LINE('Line',#748,#750) ;
#765=LINE('Line',#762,#764) ;
#794=LINE('Line',#791,#793) ;
#808=LINE('Line',#805,#807) ;
#837=LINE('Line',#834,#836) ;
#851=LINE('Line',#848,#850) ;
#880=LINE('Line',#877,#879) ;
#894=LINE('Line',#891,#893) ;
#932=LINE('Line',#929,#931) ;
#946=LINE('Line',#943,#945) ;
#1014=LINE('Line',#1011,#1013) ;
#1028=LINE('Line',#1025,#1027) ;
#1071=LINE('Line',#1068,#1070) ;
#1085=LINE('Line',#1082,#1084) ;
#1119=LINE('Line',#1116,#1118) ;
#1133=LINE('Line',#1130,#1132) ;
#1157=LINE('Line',#1154,#1156) ;
#1171=LINE('Line',#1168,#1170) ;
#1200=LINE('Line',#1197,#1199) ;
#1214=LINE('Line',#1211,#1213) ;
#1243=LINE('Line',#1240,#1242) ;
#1257=LINE('Line',#1254,#1256) ;
#2=MECHANICAL_CONTEXT(' ',#1,'mechanical') ;
#24=PERSONAL_ADDRESS(' ',' ',' ',' ',' ',' ',' ',' ',' ',' ',' ',' ',(#22),' ') ;
#194=PLANE('',#193) ;
#270=PLANE('',#269) ;
#976=PLANE('',#975) ;
#990=PLANE('',#989) ;
#1282=PLANE('',#1281) ;
#1296=PLANE('',#1295) ;
#43=PLANE_ANGLE_MEASURE_WITH_UNIT(PLANE_ANGLE_MEASURE(0.0174532925199),#42) ;
#7=PRODUCT_CATEGORY('part',$) ;
#9=PRODUCT_CATEGORY_RELATIONSHIP(' ',' ',#7,#8) ;
#6=PRODUCT_DEFINITION_FORMATION_WITH_SPECIFIED_SOURCE('',' ',#5,.NOT_KNOWN.) ;
#8=PRODUCT_RELATED_PRODUCT_CATEGORY('detail',$,(#5)) ;
#50=SHAPE_DEFINITION_REPRESENTATION(#40,#49) ;
#62=VERTEX_POINT('',#61) ;
#64=VERTEX_POINT('',#63) ;
#71=VERTEX_POINT('',#70) ;
#78=VERTEX_POINT('',#77) ;
#119=VERTEX_POINT('',#118) ;
#126=VERTEX_POINT('',#125) ;
#157=VERTEX_POINT('',#156) ;
#164=VERTEX_POINT('',#163) ;
#200=VERTEX_POINT('',#199) ;
#202=VERTEX_POINT('',#201) ;
#228=VERTEX_POINT('',#227) ;
#235=VERTEX_POINT('',#234) ;
#276=VERTEX_POINT('',#275) ;
#278=VERTEX_POINT('',#277) ;
#304=VERTEX_POINT('',#303) ;
#311=VERTEX_POINT('',#310) ;
#385=VERTEX_POINT('',#384) ;
#387=VERTEX_POINT('',#386) ;
#394=VERTEX_POINT('',#393) ;
#401=VERTEX_POINT('',#400) ;
#442=VERTEX_POINT('',#441) ;
#449=VERTEX_POINT('',#448) ;
#480=VERTEX_POINT('',#479) ;
#487=VERTEX_POINT('',#486) ;
#522=VERTEX_POINT('',#521) ;
#524=VERTEX_POINT('',#523) ;
#546=VERTEX_POINT('',#545) ;
#553=VERTEX_POINT('',#552) ;
#593=VERTEX_POINT('',#592) ;
#595=VERTEX_POINT('',#594) ;
#617=VERTEX_POINT('',#616) ;
#619=VERTEX_POINT('',#618) ;
#696=VERTEX_POINT('',#695) ;
#698=VERTEX_POINT('',#697) ;
#705=VERTEX_POINT('',#704) ;
#712=VERTEX_POINT('',#711) ;
#753=VERTEX_POINT('',#752) ;
#760=VERTEX_POINT('',#759) ;
#796=VERTEX_POINT('',#795) ;
#803=VERTEX_POINT('',#802) ;
#839=VERTEX_POINT('',#838) ;
#846=VERTEX_POINT('',#845) ;
#882=VERTEX_POINT('',#881) ;
#889=VERTEX_POINT('',#888) ;
#925=VERTEX_POINT('',#924) ;
#927=VERTEX_POINT('',#926) ;
#934=VERTEX_POINT('',#933) ;
#941=VERTEX_POINT('',#940) ;
#1007=VERTEX_POINT('',#1006) ;
#1009=VERTEX_POINT('',#1008) ;
#1016=VERTEX_POINT('',#1015) ;
#1023=VERTEX_POINT('',#1022) ;
#1064=VERTEX_POINT('',#1063) ;
#1066=VERTEX_POINT('',#1065) ;
#1073=VERTEX_POINT('',#1072) ;
#1080=VERTEX_POINT('',#1079) ;
#1121=VERTEX_POINT('',#1120) ;
#1128=VERTEX_POINT('',#1127) ;
#1159=VERTEX_POINT('',#1158) ;
#1166=VERTEX_POINT('',#1165) ;
#1202=VERTEX_POINT('',#1201) ;
#1209=VERTEX_POINT('',#1208) ;
#1245=VERTEX_POINT('',#1244) ;
#1252=VERTEX_POINT('',#1251) ;
#41=(LENGTH_UNIT()NAMED_UNIT(*)SI_UNIT(.MILLI.,.METRE.)) ;
#42=(NAMED_UNIT(*)PLANE_ANGLE_UNIT()SI_UNIT($,.RADIAN.)) ;
#44=(NAMED_UNIT(*)SI_UNIT($,.STERADIAN.)SOLID_ANGLE_UNIT()) ;
#46=(GEOMETRIC_REPRESENTATION_CONTEXT(3)GLOBAL_UNCERTAINTY_ASSIGNED_CONTEXT((#45))GLOBAL_UNIT_ASSIGNED_CONTEXT((#41,#42,#44))REPRESENTATION_CONTEXT(' ',' ')) ;
ENDSEC;
END-ISO-10303-21;
